Output/Timer.vcd
$date
	Sat Jun 28 16:15:25 2025
$end
$version
	Icarus Verilog
$end
$timescale
	1s
$end
$scope module Timer_tb $end
$var wire 1 ! ACD_REQUEST_1 $end
$var wire 1 " TMO3 $end
$var wire 1 # TMO2 $end
$var wire 1 $ TMO1 $end
$var wire 1 % TMO0 $end
$var wire 1 & OVI3 $end
$var wire 1 ' OVI2 $end
$var wire 1 ( OVI1 $end
$var wire 1 ) OVI0 $end
$var wire 1 * CMIB3 $end
$var wire 1 + CMIB2 $end
$var wire 1 , CMIB1 $end
$var wire 1 - CMIB0 $end
$var wire 1 . CMIA3 $end
$var wire 1 / CMIA2 $end
$var wire 1 0 CMIA1 $end
$var wire 1 1 CMIA0 $end
$var wire 1 2 ACD_REQUEST_0 $end
$var reg 1 3 TMCI0 $end
$var reg 1 4 TMCI1 $end
$var reg 1 5 TMCI2 $end
$var reg 1 6 TMCI3 $end
$var reg 1 7 TMRI0 $end
$var reg 1 8 TMRI1 $end
$var reg 1 9 TMRI2 $end
$var reg 1 : TMRI3 $end
$var reg 1 ; clk $end
$scope module Timer_u $end
$var wire 1 ! ACD_REQUEST_1 $end
$var wire 1 < Overflow0 $end
$var wire 1 = Overflow1 $end
$var wire 1 > Overflow2 $end
$var wire 1 ? Overflow3 $end
$var wire 1 3 TMCI0 $end
$var wire 1 4 TMCI1 $end
$var wire 1 5 TMCI2 $end
$var wire 1 6 TMCI3 $end
$var wire 1 7 TMRI0 $end
$var wire 1 8 TMRI1 $end
$var wire 1 9 TMRI2 $end
$var wire 1 : TMRI3 $end
$var wire 1 ; clk $end
$var wire 5 @ clock_select_3 [4:0] $end
$var wire 5 A clock_select_2 [4:0] $end
$var wire 5 B clock_select_1 [4:0] $end
$var wire 5 C clock_select_0 [4:0] $end
$var wire 1 " TMO3 $end
$var wire 1 # TMO2 $end
$var wire 1 $ TMO1 $end
$var wire 1 % TMO0 $end
$var wire 1 D Overflow_3 $end
$var wire 1 E Overflow_2 $end
$var wire 1 F Overflow_1 $end
$var wire 1 G Overflow_0 $end
$var wire 1 & OVI3 $end
$var wire 1 ' OVI2 $end
$var wire 1 ( OVI1 $end
$var wire 1 ) OVI0 $end
$var wire 2 H CounterEdge3 [1:0] $end
$var wire 2 I CounterEdge2 [1:0] $end
$var wire 2 J CounterEdge1 [1:0] $end
$var wire 2 K CounterEdge0 [1:0] $end
$var wire 1 L CounterClock3 $end
$var wire 1 M CounterClock2 $end
$var wire 1 N CounterClock1 $end
$var wire 1 O CounterClock0 $end
$var wire 1 P CounterClear3 $end
$var wire 1 Q CounterClear2 $end
$var wire 1 R CounterClear1 $end
$var wire 1 S CounterClear0 $end
$var wire 1 T CompareMatchB3 $end
$var wire 1 U CompareMatchB2 $end
$var wire 1 V CompareMatchB1 $end
$var wire 1 W CompareMatchB0 $end
$var wire 1 X CompareMatchA3 $end
$var wire 1 Y CompareMatchA2 $end
$var wire 1 Z CompareMatchA1 $end
$var wire 1 [ CompareMatchA0 $end
$var wire 1 * CMIB3 $end
$var wire 1 + CMIB2 $end
$var wire 1 , CMIB1 $end
$var wire 1 - CMIB0 $end
$var wire 1 . CMIA3 $end
$var wire 1 / CMIA2 $end
$var wire 1 0 CMIA1 $end
$var wire 1 1 CMIA0 $end
$var wire 1 \ ADC_REQUEST_1 $end
$var wire 1 2 ACD_REQUEST_0 $end
$var parameter 32 ] BIT_WIDTH $end
$var parameter 2 ^ BOTH_EDGES $end
$var parameter 32 _ CLK_SELECT_BIT_WIDTH $end
$var parameter 32 ` EDGE_SELECT_BIT_WIDTH $end
$var parameter 2 a FALLING_EDGE $end
$var parameter 2 b PROHIBITED $end
$var parameter 2 c RISING_EDGE $end
$var reg 8 d TCCR_0 [7:0] $end
$var reg 8 e TCCR_1 [7:0] $end
$var reg 8 f TCCR_2 [7:0] $end
$var reg 8 g TCCR_3 [7:0] $end
$var reg 8 h TCNT_0 [7:0] $end
$var reg 8 i TCNT_1 [7:0] $end
$var reg 8 j TCNT_2 [7:0] $end
$var reg 8 k TCNT_3 [7:0] $end
$var reg 8 l TCORA_0 [7:0] $end
$var reg 8 m TCORA_1 [7:0] $end
$var reg 8 n TCORA_2 [7:0] $end
$var reg 8 o TCORA_3 [7:0] $end
$var reg 8 p TCORB_0 [7:0] $end
$var reg 8 q TCORB_1 [7:0] $end
$var reg 8 r TCORB_2 [7:0] $end
$var reg 8 s TCORB_3 [7:0] $end
$var reg 8 t TCR_0 [7:0] $end
$var reg 8 u TCR_1 [7:0] $end
$var reg 8 v TCR_2 [7:0] $end
$var reg 8 w TCR_3 [7:0] $end
$var reg 8 x TCSR_0 [7:0] $end
$var reg 8 y TCSR_1 [7:0] $end
$var reg 8 z TCSR_2 [7:0] $end
$var reg 8 { TCSR_3 [7:0] $end
$scope module ClockSelect_0 $end
$var wire 1 3 TMCI0 $end
$var wire 1 4 TMCI1 $end
$var wire 1 ; clk $end
$var wire 5 | clock_select_1 [4:0] $end
$var wire 5 } clock_select_0 [4:0] $end
$var wire 1 ~ clk_div8192 $end
$var wire 1 !" clk_div8 $end
$var wire 1 "" clk_div64 $end
$var wire 1 #" clk_div32 $end
$var wire 1 $" clk_div2 $end
$var wire 1 %" clk_div1024 $end
$var parameter 5 &" BOTH_EDGES_EXTERNAL $end
$var parameter 32 '" CLK_SELECT_BIT_WIDTH $end
$var parameter 32 (" EDGE_SELECT_BIT_WIDTH $end
$var parameter 5 )" FALLING_DIV1024 $end
$var parameter 5 *" FALLING_DIV2 $end
$var parameter 5 +" FALLING_DIV32 $end
$var parameter 5 ," FALLING_DIV64 $end
$var parameter 5 -" FALLING_DIV8 $end
$var parameter 5 ." FALLING_DIV8192 $end
$var parameter 5 /" FALLING_EXTERNAL $end
$var parameter 5 0" OVF_COMP_MATCH $end
$var parameter 5 1" PROHIBITED $end
$var parameter 5 2" RISING_DIV1024 $end
$var parameter 5 3" RISING_DIV2 $end
$var parameter 5 4" RISING_DIV32 $end
$var parameter 5 5" RISING_DIV64 $end
$var parameter 5 6" RISING_DIV8 $end
$var parameter 5 7" RISING_DIV8192 $end
$var parameter 5 8" RISING_EXTERNAL $end
$var reg 1 O CounterClock0 $end
$var reg 1 N CounterClock1 $end
$var reg 2 9" CounterEdge0 [1:0] $end
$var reg 2 :" CounterEdge1 [1:0] $end
$scope module div1024 $end
$var wire 1 ; clk_in $end
$var parameter 32 ;" DIVISOR $end
$var reg 1 %" clk_out $end
$var reg 28 <" counter [27:0] $end
$upscope $end
$scope module div2 $end
$var wire 1 ; clk_in $end
$var parameter 32 =" DIVISOR $end
$var reg 1 $" clk_out $end
$var reg 28 >" counter [27:0] $end
$upscope $end
$scope module div32 $end
$var wire 1 ; clk_in $end
$var parameter 32 ?" DIVISOR $end
$var reg 1 #" clk_out $end
$var reg 28 @" counter [27:0] $end
$upscope $end
$scope module div64 $end
$var wire 1 ; clk_in $end
$var parameter 32 A" DIVISOR $end
$var reg 1 "" clk_out $end
$var reg 28 B" counter [27:0] $end
$upscope $end
$scope module div8 $end
$var wire 1 ; clk_in $end
$var parameter 32 C" DIVISOR $end
$var reg 1 !" clk_out $end
$var reg 28 D" counter [27:0] $end
$upscope $end
$scope module div8192 $end
$var wire 1 ; clk_in $end
$var parameter 32 E" DIVISOR $end
$var reg 1 ~ clk_out $end
$var reg 28 F" counter [27:0] $end
$upscope $end
$upscope $end
$scope module ClockSelect_1 $end
$var wire 1 5 TMCI0 $end
$var wire 1 6 TMCI1 $end
$var wire 1 ; clk $end
$var wire 5 G" clock_select_1 [4:0] $end
$var wire 5 H" clock_select_0 [4:0] $end
$var wire 1 I" clk_div8192 $end
$var wire 1 J" clk_div8 $end
$var wire 1 K" clk_div64 $end
$var wire 1 L" clk_div32 $end
$var wire 1 M" clk_div2 $end
$var wire 1 N" clk_div1024 $end
$var parameter 5 O" BOTH_EDGES_EXTERNAL $end
$var parameter 32 P" CLK_SELECT_BIT_WIDTH $end
$var parameter 32 Q" EDGE_SELECT_BIT_WIDTH $end
$var parameter 5 R" FALLING_DIV1024 $end
$var parameter 5 S" FALLING_DIV2 $end
$var parameter 5 T" FALLING_DIV32 $end
$var parameter 5 U" FALLING_DIV64 $end
$var parameter 5 V" FALLING_DIV8 $end
$var parameter 5 W" FALLING_DIV8192 $end
$var parameter 5 X" FALLING_EXTERNAL $end
$var parameter 5 Y" OVF_COMP_MATCH $end
$var parameter 5 Z" PROHIBITED $end
$var parameter 5 [" RISING_DIV1024 $end
$var parameter 5 \" RISING_DIV2 $end
$var parameter 5 ]" RISING_DIV32 $end
$var parameter 5 ^" RISING_DIV64 $end
$var parameter 5 _" RISING_DIV8 $end
$var parameter 5 `" RISING_DIV8192 $end
$var parameter 5 a" RISING_EXTERNAL $end
$var reg 1 M CounterClock0 $end
$var reg 1 L CounterClock1 $end
$var reg 2 b" CounterEdge0 [1:0] $end
$var reg 2 c" CounterEdge1 [1:0] $end
$scope module div1024 $end
$var wire 1 ; clk_in $end
$var parameter 32 d" DIVISOR $end
$var reg 1 N" clk_out $end
$var reg 28 e" counter [27:0] $end
$upscope $end
$scope module div2 $end
$var wire 1 ; clk_in $end
$var parameter 32 f" DIVISOR $end
$var reg 1 M" clk_out $end
$var reg 28 g" counter [27:0] $end
$upscope $end
$scope module div32 $end
$var wire 1 ; clk_in $end
$var parameter 32 h" DIVISOR $end
$var reg 1 L" clk_out $end
$var reg 28 i" counter [27:0] $end
$upscope $end
$scope module div64 $end
$var wire 1 ; clk_in $end
$var parameter 32 j" DIVISOR $end
$var reg 1 K" clk_out $end
$var reg 28 k" counter [27:0] $end
$upscope $end
$scope module div8 $end
$var wire 1 ; clk_in $end
$var parameter 32 l" DIVISOR $end
$var reg 1 J" clk_out $end
$var reg 28 m" counter [27:0] $end
$upscope $end
$scope module div8192 $end
$var wire 1 ; clk_in $end
$var parameter 32 n" DIVISOR $end
$var reg 1 I" clk_out $end
$var reg 28 o" counter [27:0] $end
$upscope $end
$upscope $end
$scope module Comparator_A0 $end
$var wire 8 p" TCNT [7:0] $end
$var wire 8 q" TCOR [7:0] $end
$var wire 1 [ CompareMatch $end
$var parameter 32 r" BIT_WIDTH $end
$upscope $end
$scope module Comparator_A1 $end
$var wire 8 s" TCNT [7:0] $end
$var wire 8 t" TCOR [7:0] $end
$var wire 1 Z CompareMatch $end
$var parameter 32 u" BIT_WIDTH $end
$upscope $end
$scope module Comparator_A2 $end
$var wire 8 v" TCNT [7:0] $end
$var wire 8 w" TCOR [7:0] $end
$var wire 1 Y CompareMatch $end
$var parameter 32 x" BIT_WIDTH $end
$upscope $end
$scope module Comparator_A3 $end
$var wire 8 y" TCNT [7:0] $end
$var wire 8 z" TCOR [7:0] $end
$var wire 1 X CompareMatch $end
$var parameter 32 {" BIT_WIDTH $end
$upscope $end
$scope module Comparator_B0 $end
$var wire 8 |" TCNT [7:0] $end
$var wire 8 }" TCOR [7:0] $end
$var wire 1 W CompareMatch $end
$var parameter 32 ~" BIT_WIDTH $end
$upscope $end
$scope module Comparator_B1 $end
$var wire 8 !# TCNT [7:0] $end
$var wire 8 "# TCOR [7:0] $end
$var wire 1 V CompareMatch $end
$var parameter 32 ## BIT_WIDTH $end
$upscope $end
$scope module Comparator_B2 $end
$var wire 8 $# TCNT [7:0] $end
$var wire 8 %# TCOR [7:0] $end
$var wire 1 U CompareMatch $end
$var parameter 32 &# BIT_WIDTH $end
$upscope $end
$scope module Comparator_B3 $end
$var wire 8 '# TCNT [7:0] $end
$var wire 8 (# TCOR [7:0] $end
$var wire 1 T CompareMatch $end
$var parameter 32 )# BIT_WIDTH $end
$upscope $end
$scope module LogicControl_0 $end
$var wire 1 [ CompareMatchA0 $end
$var wire 1 Z CompareMatchA1 $end
$var wire 1 W CompareMatchB0 $end
$var wire 1 V CompareMatchB1 $end
$var wire 1 < Overflow0 $end
$var wire 1 = Overflow1 $end
$var wire 8 *# TCCR_0 [7:0] $end
$var wire 8 +# TCCR_1 [7:0] $end
$var wire 8 ,# TCR_0 [7:0] $end
$var wire 8 -# TCR_1 [7:0] $end
$var wire 8 .# TCSR_0 [7:0] $end
$var wire 8 /# TCSR_1 [7:0] $end
$var wire 1 7 TMRI0 $end
$var wire 1 8 TMRI1 $end
$var wire 1 0# pulse_rst_0 $end
$var wire 1 1# pulse_rst_1 $end
$var wire 5 2# clock_select_1 [4:0] $end
$var wire 5 3# clock_select_0 [4:0] $end
$var wire 1 4# TMRIS_1 $end
$var wire 1 5# TMRIS_0 $end
$var wire 1 6# OVIE_1 $end
$var wire 1 7# OVIE_0 $end
$var wire 1 8# OVF_1 $end
$var wire 1 9# OVF_0 $end
$var wire 1 :# OS3_1 $end
$var wire 1 ;# OS3_0 $end
$var wire 1 <# OS2_1 $end
$var wire 1 =# OS2_0 $end
$var wire 1 ># OS1_1 $end
$var wire 1 ?# OS1_0 $end
$var wire 1 @# OS0_1 $end
$var wire 1 A# OS0_0 $end
$var wire 1 B# ICKS1_1 $end
$var wire 1 C# ICKS1_0 $end
$var wire 1 D# ICKS0_1 $end
$var wire 1 E# ICKS0_0 $end
$var wire 1 R CounterClear1 $end
$var wire 1 S CounterClear0 $end
$var wire 1 F# CMIEB_1 $end
$var wire 1 G# CMIEB_0 $end
$var wire 1 H# CMIEA_1 $end
$var wire 1 I# CMIEA_0 $end
$var wire 1 J# CMFB_1 $end
$var wire 1 K# CMFB_0 $end
$var wire 1 L# CMFA_1 $end
$var wire 1 M# CMFA_0 $end
$var wire 1 N# CKS2_1 $end
$var wire 1 O# CKS2_0 $end
$var wire 1 P# CKS1_1 $end
$var wire 1 Q# CKS1_0 $end
$var wire 1 R# CKS0_1 $end
$var wire 1 S# CKS0_0 $end
$var wire 1 T# CCLR1_1 $end
$var wire 1 U# CCLR1_0 $end
$var wire 1 V# CCLR0_1 $end
$var wire 1 W# CCLR0_0 $end
$var wire 1 X# ADTE_0 $end
$var parameter 32 Y# BIT_WIDTH $end
$var parameter 32 Z# CLK_SELECT_BIT_WIDTH $end
$var reg 1 2 ADC_REQUEST $end
$var reg 1 1 CMIA0 $end
$var reg 1 0 CMIA1 $end
$var reg 1 - CMIB0 $end
$var reg 1 , CMIB1 $end
$var reg 1 ) OVI0 $end
$var reg 1 ( OVI1 $end
$var reg 1 % TMO0 $end
$var reg 1 $ TMO1 $end
$var reg 1 [# edge_rst_0 $end
$var reg 1 \# edge_rst_1 $end
$upscope $end
$scope module LogicControl_1 $end
$var wire 1 Y CompareMatchA0 $end
$var wire 1 X CompareMatchA1 $end
$var wire 1 U CompareMatchB0 $end
$var wire 1 T CompareMatchB1 $end
$var wire 1 > Overflow0 $end
$var wire 1 ? Overflow1 $end
$var wire 8 ]# TCCR_0 [7:0] $end
$var wire 8 ^# TCCR_1 [7:0] $end
$var wire 8 _# TCR_0 [7:0] $end
$var wire 8 `# TCR_1 [7:0] $end
$var wire 8 a# TCSR_0 [7:0] $end
$var wire 8 b# TCSR_1 [7:0] $end
$var wire 1 9 TMRI0 $end
$var wire 1 : TMRI1 $end
$var wire 1 c# pulse_rst_0 $end
$var wire 1 d# pulse_rst_1 $end
$var wire 5 e# clock_select_1 [4:0] $end
$var wire 5 f# clock_select_0 [4:0] $end
$var wire 1 g# TMRIS_1 $end
$var wire 1 h# TMRIS_0 $end
$var wire 1 i# OVIE_1 $end
$var wire 1 j# OVIE_0 $end
$var wire 1 k# OVF_1 $end
$var wire 1 l# OVF_0 $end
$var wire 1 m# OS3_1 $end
$var wire 1 n# OS3_0 $end
$var wire 1 o# OS2_1 $end
$var wire 1 p# OS2_0 $end
$var wire 1 q# OS1_1 $end
$var wire 1 r# OS1_0 $end
$var wire 1 s# OS0_1 $end
$var wire 1 t# OS0_0 $end
$var wire 1 u# ICKS1_1 $end
$var wire 1 v# ICKS1_0 $end
$var wire 1 w# ICKS0_1 $end
$var wire 1 x# ICKS0_0 $end
$var wire 1 P CounterClear1 $end
$var wire 1 Q CounterClear0 $end
$var wire 1 y# CMIEB_1 $end
$var wire 1 z# CMIEB_0 $end
$var wire 1 {# CMIEA_1 $end
$var wire 1 |# CMIEA_0 $end
$var wire 1 }# CMFB_1 $end
$var wire 1 ~# CMFB_0 $end
$var wire 1 !$ CMFA_1 $end
$var wire 1 "$ CMFA_0 $end
$var wire 1 #$ CKS2_1 $end
$var wire 1 $$ CKS2_0 $end
$var wire 1 %$ CKS1_1 $end
$var wire 1 &$ CKS1_0 $end
$var wire 1 '$ CKS0_1 $end
$var wire 1 ($ CKS0_0 $end
$var wire 1 )$ CCLR1_1 $end
$var wire 1 *$ CCLR1_0 $end
$var wire 1 +$ CCLR0_1 $end
$var wire 1 ,$ CCLR0_0 $end
$var wire 1 -$ ADTE_0 $end
$var parameter 32 .$ BIT_WIDTH $end
$var parameter 32 /$ CLK_SELECT_BIT_WIDTH $end
$var reg 1 \ ADC_REQUEST $end
$var reg 1 / CMIA0 $end
$var reg 1 . CMIA1 $end
$var reg 1 + CMIB0 $end
$var reg 1 * CMIB1 $end
$var reg 1 ' OVI0 $end
$var reg 1 & OVI1 $end
$var reg 1 # TMO0 $end
$var reg 1 " TMO1 $end
$var reg 1 0$ edge_rst_0 $end
$var reg 1 1$ edge_rst_1 $end
$upscope $end
$upscope $end
$upscope $end
$enddefinitions $end
$comment Show the parameter values. $end
$dumpall
b101 /$
b1000 .$
b101 Z#
b1000 Y#
b1000 )#
b1000 &#
b1000 ##
b1000 ~"
b1000 {"
b1000 x"
b1000 u"
b1000 r"
b10000000000000 n"
b1000 l"
b1000000 j"
b100000 h"
b10 f"
b10000000000 d"
b10100 a"
b1100 `"
b100 _"
b1000 ^"
b1001 ]"
b101 \"
b1101 ["
b0 Z"
b10000 Y"
b11000 X"
b1110 W"
b110 V"
b1010 U"
b1011 T"
b111 S"
b1111 R"
b10 Q"
b101 P"
b11100 O"
b10000000000000 E"
b1000 C"
b1000000 A"
b100000 ?"
b10 ="
b10000000000 ;"
b10100 8"
b1100 7"
b100 6"
b1000 5"
b1001 4"
b101 3"
b1101 2"
b0 1"
b10000 0"
b11000 /"
b1110 ."
b110 -"
b1010 ,"
b1011 +"
b111 *"
b1111 )"
b10 ("
b101 '"
b11100 &"
b1 c
b0 b
b10 a
b10 `
b101 _
b11 ^
b1000 ]
$end
#0
$dumpvars
x1$
x0$
0-$
0,$
0+$
0*$
0)$
0($
0'$
0&$
0%$
0$$
0#$
0"$
0!$
0~#
0}#
0|#
0{#
0z#
0y#
0x#
0w#
0v#
0u#
0t#
0s#
0r#
0q#
0p#
0o#
0n#
0m#
0l#
0k#
0j#
0i#
0h#
0g#
b0 f#
b0 e#
0d#
0c#
b10000 b#
b0 a#
b0 `#
b0 _#
b0 ^#
b0 ]#
x\#
x[#
0X#
1W#
0V#
0U#
0T#
1S#
0R#
0Q#
0P#
0O#
0N#
0M#
0L#
0K#
0J#
0I#
0H#
0G#
0F#
1E#
0D#
0C#
0B#
0A#
0@#
1?#
0>#
1=#
0<#
0;#
0:#
09#
08#
07#
06#
05#
04#
b101 3#
b0 2#
01#
00#
b10000 /#
b110 .#
b0 -#
b1001 ,#
b0 +#
b1 *#
b11111111 (#
b0 '#
b11111111 %#
b0 $#
b11111111 "#
b0 !#
b111 }"
b0 |"
b11111111 z"
b0 y"
b11111111 w"
b0 v"
b11111111 t"
b0 s"
b1110 q"
b0 p"
b0 o"
b0 m"
b0 k"
b0 i"
b0 g"
b0 e"
b0 c"
b0 b"
0N"
0M"
0L"
0K"
0J"
0I"
b0 H"
b0 G"
b0 F"
b0 D"
b0 B"
b0 @"
b0 >"
b0 <"
b0 :"
b1 9"
0%"
0$"
0#"
0""
0!"
0~
b101 }
b0 |
b10000 {
b0 z
b10000 y
b110 x
b0 w
b0 v
b0 u
b1001 t
b11111111 s
b11111111 r
b11111111 q
b111 p
b11111111 o
b11111111 n
b11111111 m
b1110 l
b0 k
b0 j
b0 i
b0 h
b0 g
b0 f
b0 e
b1 d
1\
0[
0Z
0Y
0X
0W
0V
0U
0T
0S
0R
0Q
0P
0O
xN
xM
xL
b1 K
b0 J
b0 I
b0 H
0G
0F
0E
0D
b101 C
b0 B
b0 A
b0 @
z?
z>
z=
z<
0;
0:
09
08
07
06
05
04
03
12
01
00
0/
0.
0-
0,
0+
0*
0)
0(
0'
0&
x%
x$
x#
x"
z!
$end
#5
b1 h
b1 p"
b1 |"
1O
1$"
b1 D"
b1 @"
b1 B"
b1 <"
b1 F"
1M"
b1 m"
b1 i"
b1 k"
b1 e"
b1 o"
1;
#10
0;
13
#15
0O
b10 o"
b10 e"
b10 k"
b10 i"
b10 m"
0M"
b10 F"
b10 <"
b10 B"
b10 @"
b10 D"
0$"
1;
14
#20
0;
03
#25
b10 h
b10 p"
b10 |"
1O
1$"
b11 D"
b11 @"
b11 B"
b11 <"
b11 F"
1M"
b11 m"
b11 i"
b11 k"
b11 e"
b11 o"
1;
#30
0;
13
04
#35
0O
b100 o"
b100 e"
b100 k"
b100 i"
b0 m"
1J"
0M"
b100 F"
b100 <"
b100 B"
b100 @"
b0 D"
1!"
0$"
1;
#40
0;
03
#45
b11 h
b11 p"
b11 |"
1O
1$"
b1 D"
b101 @"
b101 B"
b101 <"
b101 F"
1M"
b1 m"
b101 i"
b101 k"
b101 e"
b101 o"
1;
14
#50
0;
13
#55
0O
b110 o"
b110 e"
b110 k"
b110 i"
b10 m"
0M"
b110 F"
b110 <"
b110 B"
b110 @"
b10 D"
0$"
1;
#60
0;
03
04
#65
b100 h
b100 p"
b100 |"
1O
1$"
b11 D"
b111 @"
b111 B"
b111 <"
b111 F"
1M"
b11 m"
b111 i"
b111 k"
b111 e"
b111 o"
1;
#70
0;
13
#75
0O
b1000 o"
b1000 e"
b1000 k"
b1000 i"
b0 m"
0J"
0M"
b1000 F"
b1000 <"
b1000 B"
b1000 @"
b0 D"
0!"
0$"
1;
14
#80
0;
03
#85
b101 h
b101 p"
b101 |"
1O
1$"
b1 D"
b1001 @"
b1001 B"
b1001 <"
b1001 F"
1M"
b1 m"
b1001 i"
b1001 k"
b1001 e"
b1001 o"
1;
#90
0;
13
04
#95
0O
b1010 o"
b1010 e"
b1010 k"
b1010 i"
b10 m"
0M"
b1010 F"
b1010 <"
b1010 B"
b1010 @"
b10 D"
0$"
1;
#100
0;
03
#105
b110 h
b110 p"
b110 |"
1O
1$"
b11 D"
b1011 @"
b1011 B"
b1011 <"
b1011 F"
1M"
b11 m"
b1011 i"
b1011 k"
b1011 e"
b1011 o"
1;
14
#110
0;
13
#115
0O
b1100 o"
b1100 e"
b1100 k"
b1100 i"
b0 m"
1J"
0M"
b1100 F"
b1100 <"
b1100 B"
b1100 @"
b0 D"
1!"
0$"
1;
#120
0;
03
04
#125
0%
1W
b111 h
b111 p"
b111 |"
1O
1$"
b1 D"
b1101 @"
b1101 B"
b1101 <"
b1101 F"
1M"
b1 m"
b1101 i"
b1101 k"
b1101 e"
b1101 o"
1;
#130
0;
13
#135
0O
b1110 o"
b1110 e"
b1110 k"
b1110 i"
b10 m"
0M"
b1110 F"
b1110 <"
b1110 B"
b1110 @"
b10 D"
0$"
1;
14
#140
0;
03
#145
0W
b1000 h
b1000 p"
b1000 |"
1O
1$"
b11 D"
b1111 @"
b1111 B"
b1111 <"
b1111 F"
1M"
b11 m"
b1111 i"
b1111 k"
b1111 e"
b1111 o"
1;
#150
0;
13
04
#155
0O
b10000 o"
b10000 e"
b10000 k"
b0 i"
1L"
b0 m"
0J"
0M"
b10000 F"
b10000 <"
b10000 B"
b0 @"
1#"
b0 D"
0!"
0$"
1;
#160
0;
03
#165
b1001 h
b1001 p"
b1001 |"
1O
1$"
b1 D"
b1 @"
b10001 B"
b10001 <"
b10001 F"
1M"
b1 m"
b1 i"
b10001 k"
b10001 e"
b10001 o"
1;
14
#170
0;
13
#175
0O
b10010 o"
b10010 e"
b10010 k"
b10 i"
b10 m"
0M"
b10010 F"
b10010 <"
b10010 B"
b10 @"
b10 D"
0$"
1;
#180
0;
03
04
#185
b1010 h
b1010 p"
b1010 |"
1O
1$"
b11 D"
b11 @"
b10011 B"
b10011 <"
b10011 F"
1M"
b11 m"
b11 i"
b10011 k"
b10011 e"
b10011 o"
1;
#190
0;
13
#195
0O
b10100 o"
b10100 e"
b10100 k"
b100 i"
b0 m"
1J"
0M"
b10100 F"
b10100 <"
b10100 B"
b100 @"
b0 D"
1!"
0$"
1;
14
#200
0;
03
#205
b1011 h
b1011 p"
b1011 |"
1O
1$"
b1 D"
b101 @"
b10101 B"
b10101 <"
b10101 F"
1M"
b1 m"
b101 i"
b10101 k"
b10101 e"
b10101 o"
1;
#210
0;
13
04
#215
0O
b10110 o"
b10110 e"
b10110 k"
b110 i"
b10 m"
0M"
b10110 F"
b10110 <"
b10110 B"
b110 @"
b10 D"
0$"
1;
#220
0;
03
#225
b1100 h
b1100 p"
b1100 |"
1O
1$"
b11 D"
b111 @"
b10111 B"
b10111 <"
b10111 F"
1M"
b11 m"
b111 i"
b10111 k"
b10111 e"
b10111 o"
1;
14
#230
0;
13
#235
0O
b11000 o"
b11000 e"
b11000 k"
b1000 i"
b0 m"
0J"
0M"
b11000 F"
b11000 <"
b11000 B"
b1000 @"
b0 D"
0!"
0$"
1;
#240
0;
03
04
#245
b1101 h
b1101 p"
b1101 |"
1O
1$"
b1 D"
b1001 @"
b11001 B"
b11001 <"
b11001 F"
1M"
b1 m"
b1001 i"
b11001 k"
b11001 e"
b11001 o"
1;
#250
0;
13
#255
0O
b11010 o"
b11010 e"
b11010 k"
b1010 i"
b10 m"
0M"
b11010 F"
b11010 <"
b11010 B"
b1010 @"
b10 D"
0$"
1;
14
#260
0;
03
#265
1%
12
0S
0[
b0 h
b0 p"
b0 |"
1O
1$"
b11 D"
b1011 @"
b11011 B"
b11011 <"
b11011 F"
1M"
b11 m"
b1011 i"
b11011 k"
b11011 e"
b11011 o"
1;
#270
0;
13
04
#275
0O
b11100 o"
b11100 e"
b11100 k"
b1100 i"
b0 m"
1J"
0M"
b11100 F"
b11100 <"
b11100 B"
b1100 @"
b0 D"
1!"
0$"
1;
#280
0;
03
#285
b1 h
b1 p"
b1 |"
1O
1$"
b1 D"
b1101 @"
b11101 B"
b11101 <"
b11101 F"
1M"
b1 m"
b1101 i"
b11101 k"
b11101 e"
b11101 o"
1;
14
#290
0;
13
#295
0O
b11110 o"
b11110 e"
b11110 k"
b1110 i"
b10 m"
0M"
b11110 F"
b11110 <"
b11110 B"
b1110 @"
b10 D"
0$"
1;
#300
0;
03
04
#305
b10 h
b10 p"
b10 |"
1O
1$"
b11 D"
b1111 @"
b11111 B"
b11111 <"
b11111 F"
1M"
b11 m"
b1111 i"
b11111 k"
b11111 e"
b11111 o"
1;
#310
0;
13
#315
0O
b100000 o"
b100000 e"
b0 k"
1K"
b0 i"
0L"
b0 m"
0J"
0M"
b100000 F"
b100000 <"
b0 B"
1""
b0 @"
0#"
b0 D"
0!"
0$"
1;
14
#320
0;
03
#325
b11 h
b11 p"
b11 |"
1O
1$"
b1 D"
b1 @"
b1 B"
b100001 <"
b100001 F"
1M"
b1 m"
b1 i"
b1 k"
b100001 e"
b100001 o"
1;
#330
0;
13
04
#335
0O
b100010 o"
b100010 e"
b10 k"
b10 i"
b10 m"
0M"
b100010 F"
b100010 <"
b10 B"
b10 @"
b10 D"
0$"
1;
#340
0;
03
#345
b100 h
b100 p"
b100 |"
1O
1$"
b11 D"
b11 @"
b11 B"
b100011 <"
b100011 F"
1M"
b11 m"
b11 i"
b11 k"
b100011 e"
b100011 o"
1;
14
#350
0;
13
#355
0O
b100100 o"
b100100 e"
b100 k"
b100 i"
b0 m"
1J"
0M"
b100100 F"
b100100 <"
b100 B"
b100 @"
b0 D"
1!"
0$"
1;
#360
0;
03
04
#365
b101 h
b101 p"
b101 |"
1O
1$"
b1 D"
b101 @"
b101 B"
b100101 <"
b100101 F"
1M"
b1 m"
b101 i"
b101 k"
b100101 e"
b100101 o"
1;
#370
0;
13
#375
0O
b100110 o"
b100110 e"
b110 k"
b110 i"
b10 m"
0M"
b100110 F"
b100110 <"
b110 B"
b110 @"
b10 D"
0$"
1;
14
#380
0;
03
#385
b110 h
b110 p"
b110 |"
1O
1$"
b11 D"
b111 @"
b111 B"
b100111 <"
b100111 F"
1M"
b11 m"
b111 i"
b111 k"
b100111 e"
b100111 o"
1;
#390
0;
13
04
#395
0O
b101000 o"
b101000 e"
b1000 k"
b1000 i"
b0 m"
0J"
0M"
b101000 F"
b101000 <"
b1000 B"
b1000 @"
b0 D"
0!"
0$"
1;
#400
0;
03
#405
0%
1W
b111 h
b111 p"
b111 |"
1O
1$"
b1 D"
b1001 @"
b1001 B"
b101001 <"
b101001 F"
1M"
b1 m"
b1001 i"
b1001 k"
b101001 e"
b101001 o"
1;
14
#410
0;
13
#415
0O
b101010 o"
b101010 e"
b1010 k"
b1010 i"
b10 m"
0M"
b101010 F"
b101010 <"
b1010 B"
b1010 @"
b10 D"
0$"
1;
#420
0;
03
04
#425
0W
b1000 h
b1000 p"
b1000 |"
1O
1$"
b11 D"
b1011 @"
b1011 B"
b101011 <"
b101011 F"
1M"
b11 m"
b1011 i"
b1011 k"
b101011 e"
b101011 o"
1;
#430
0;
13
#435
0O
b101100 o"
b101100 e"
b1100 k"
b1100 i"
b0 m"
1J"
0M"
b101100 F"
b101100 <"
b1100 B"
b1100 @"
b0 D"
1!"
0$"
1;
14
#440
0;
03
#445
b1001 h
b1001 p"
b1001 |"
1O
1$"
b1 D"
b1101 @"
b1101 B"
b101101 <"
b101101 F"
1M"
b1 m"
b1101 i"
b1101 k"
b101101 e"
b101101 o"
1;
#450
0;
13
04
