Output/Timer.vcd
$date
	Sun Jun 22 15:47:02 2025
$end
$version
	Icarus Verilog
$end
$timescale
	1s
$end
$scope module Timer_tb $end
$var wire 1 ! ACD_REQUEST_1 $end
$var wire 1 " TMO3 $end
$var wire 1 # TMO2 $end
$var wire 1 $ TMO1 $end
$var wire 1 % TMO0 $end
$var wire 1 & OVI3 $end
$var wire 1 ' OVI2 $end
$var wire 1 ( OVI1 $end
$var wire 1 ) OVI0 $end
$var wire 1 * CMIB3 $end
$var wire 1 + CMIB2 $end
$var wire 1 , CMIB1 $end
$var wire 1 - CMIB0 $end
$var wire 1 . CMIA3 $end
$var wire 1 / CMIA2 $end
$var wire 1 0 CMIA1 $end
$var wire 1 1 CMIA0 $end
$var wire 1 2 ACD_REQUEST_0 $end
$var reg 1 3 TMCI0 $end
$var reg 1 4 TMCI1 $end
$var reg 1 5 TMCI2 $end
$var reg 1 6 TMCI3 $end
$var reg 1 7 TMRI0 $end
$var reg 1 8 TMRI1 $end
$var reg 1 9 TMRI2 $end
$var reg 1 : TMRI3 $end
$var reg 1 ; clk $end
$scope module Timer_u $end
$var wire 1 ! ACD_REQUEST_1 $end
$var wire 1 < CounterClear0 $end
$var wire 1 = CounterClear1 $end
$var wire 1 > CounterClear2 $end
$var wire 1 ? CounterClear3 $end
$var wire 1 3 TMCI0 $end
$var wire 1 4 TMCI1 $end
$var wire 1 5 TMCI2 $end
$var wire 1 6 TMCI3 $end
$var wire 1 7 TMRI0 $end
$var wire 1 8 TMRI1 $end
$var wire 1 9 TMRI2 $end
$var wire 1 : TMRI3 $end
$var wire 1 ; clk $end
$var wire 5 @ clock_select_3 [4:0] $end
$var wire 5 A clock_select_2 [4:0] $end
$var wire 5 B clock_select_1 [4:0] $end
$var wire 5 C clock_select_0 [4:0] $end
$var wire 1 " TMO3 $end
$var wire 1 # TMO2 $end
$var wire 1 $ TMO1 $end
$var wire 1 % TMO0 $end
$var wire 1 D Overflow_3 $end
$var wire 1 E Overflow_2 $end
$var wire 1 F Overflow_1 $end
$var wire 1 G Overflow_0 $end
$var wire 1 & OVI3 $end
$var wire 1 ' OVI2 $end
$var wire 1 ( OVI1 $end
$var wire 1 ) OVI0 $end
$var wire 2 H CounterEdge3 [1:0] $end
$var wire 2 I CounterEdge2 [1:0] $end
$var wire 2 J CounterEdge1 [1:0] $end
$var wire 2 K CounterEdge0 [1:0] $end
$var wire 1 L CounterClock3 $end
$var wire 1 M CounterClock2 $end
$var wire 1 N CounterClock1 $end
$var wire 1 O CounterClock0 $end
$var wire 1 P CompareMatchB3 $end
$var wire 1 Q CompareMatchB2 $end
$var wire 1 R CompareMatchB1 $end
$var wire 1 S CompareMatchB0 $end
$var wire 1 T CompareMatchA3 $end
$var wire 1 U CompareMatchA2 $end
$var wire 1 V CompareMatchA1 $end
$var wire 1 W CompareMatchA0 $end
$var wire 1 * CMIB3 $end
$var wire 1 + CMIB2 $end
$var wire 1 , CMIB1 $end
$var wire 1 - CMIB0 $end
$var wire 1 . CMIA3 $end
$var wire 1 / CMIA2 $end
$var wire 1 0 CMIA1 $end
$var wire 1 1 CMIA0 $end
$var wire 1 X ADC_REQUEST_1 $end
$var wire 1 2 ACD_REQUEST_0 $end
$var parameter 32 Y BIT_WIDTH $end
$var parameter 2 Z BOTH_EDGES $end
$var parameter 32 [ CLK_SELECT_BIT_WIDTH $end
$var parameter 32 \ EDGE_SELECT_BIT_WIDTH $end
$var parameter 2 ] FALLING_EDGE $end
$var parameter 2 ^ PROHIBITED $end
$var parameter 2 _ RISING_EDGE $end
$var reg 8 ` TCCR_0 [7:0] $end
$var reg 8 a TCCR_1 [7:0] $end
$var reg 8 b TCCR_2 [7:0] $end
$var reg 8 c TCCR_3 [7:0] $end
$var reg 8 d TCNT_0 [7:0] $end
$var reg 8 e TCNT_1 [7:0] $end
$var reg 8 f TCNT_2 [7:0] $end
$var reg 8 g TCNT_3 [7:0] $end
$var reg 8 h TCORA_0 [7:0] $end
$var reg 8 i TCORA_1 [7:0] $end
$var reg 8 j TCORA_2 [7:0] $end
$var reg 8 k TCORA_3 [7:0] $end
$var reg 8 l TCORB_0 [7:0] $end
$var reg 8 m TCORB_1 [7:0] $end
$var reg 8 n TCORB_2 [7:0] $end
$var reg 8 o TCORB_3 [7:0] $end
$var reg 8 p TCR_0 [7:0] $end
$var reg 8 q TCR_1 [7:0] $end
$var reg 8 r TCR_2 [7:0] $end
$var reg 8 s TCR_3 [7:0] $end
$var reg 8 t TCSR_0 [7:0] $end
$var reg 8 u TCSR_1 [7:0] $end
$var reg 8 v TCSR_2 [7:0] $end
$var reg 8 w TCSR_3 [7:0] $end
$scope module ClockSelect_0 $end
$var wire 1 3 TMCI0 $end
$var wire 1 4 TMCI1 $end
$var wire 1 ; clk $end
$var wire 5 x clock_select_1 [4:0] $end
$var wire 5 y clock_select_0 [4:0] $end
$var wire 1 z clk_div8192 $end
$var wire 1 { clk_div8 $end
$var wire 1 | clk_div64 $end
$var wire 1 } clk_div32 $end
$var wire 1 ~ clk_div2 $end
$var wire 1 !" clk_div1024 $end
$var parameter 5 "" BOTH_EDGES_EXTERNAL $end
$var parameter 32 #" CLK_SELECT_BIT_WIDTH $end
$var parameter 32 $" EDGE_SELECT_BIT_WIDTH $end
$var parameter 5 %" FALLING_DIV1024 $end
$var parameter 5 &" FALLING_DIV2 $end
$var parameter 5 '" FALLING_DIV32 $end
$var parameter 5 (" FALLING_DIV64 $end
$var parameter 5 )" FALLING_DIV8 $end
$var parameter 5 *" FALLING_DIV8192 $end
$var parameter 5 +" FALLING_EXTERNAL $end
$var parameter 5 ," OVF_COMP_MATCH $end
$var parameter 5 -" PROHIBITED $end
$var parameter 5 ." RISING_DIV1024 $end
$var parameter 5 /" RISING_DIV2 $end
$var parameter 5 0" RISING_DIV32 $end
$var parameter 5 1" RISING_DIV64 $end
$var parameter 5 2" RISING_DIV8 $end
$var parameter 5 3" RISING_DIV8192 $end
$var parameter 5 4" RISING_EXTERNAL $end
$var reg 1 O CounterClock0 $end
$var reg 1 N CounterClock1 $end
$var reg 2 5" CounterEdge0 [1:0] $end
$var reg 2 6" CounterEdge1 [1:0] $end
$scope module div1024 $end
$var wire 1 ; clk_in $end
$var parameter 32 7" DIVISOR $end
$var reg 1 !" clk_out $end
$var reg 28 8" counter [27:0] $end
$upscope $end
$scope module div2 $end
$var wire 1 ; clk_in $end
$var parameter 32 9" DIVISOR $end
$var reg 1 ~ clk_out $end
$var reg 28 :" counter [27:0] $end
$upscope $end
$scope module div32 $end
$var wire 1 ; clk_in $end
$var parameter 32 ;" DIVISOR $end
$var reg 1 } clk_out $end
$var reg 28 <" counter [27:0] $end
$upscope $end
$scope module div64 $end
$var wire 1 ; clk_in $end
$var parameter 32 =" DIVISOR $end
$var reg 1 | clk_out $end
$var reg 28 >" counter [27:0] $end
$upscope $end
$scope module div8 $end
$var wire 1 ; clk_in $end
$var parameter 32 ?" DIVISOR $end
$var reg 1 { clk_out $end
$var reg 28 @" counter [27:0] $end
$upscope $end
$scope module div8192 $end
$var wire 1 ; clk_in $end
$var parameter 32 A" DIVISOR $end
$var reg 1 z clk_out $end
$var reg 28 B" counter [27:0] $end
$upscope $end
$upscope $end
$scope module ClockSelect_1 $end
$var wire 1 5 TMCI0 $end
$var wire 1 6 TMCI1 $end
$var wire 1 ; clk $end
$var wire 5 C" clock_select_1 [4:0] $end
$var wire 5 D" clock_select_0 [4:0] $end
$var wire 1 E" clk_div8192 $end
$var wire 1 F" clk_div8 $end
$var wire 1 G" clk_div64 $end
$var wire 1 H" clk_div32 $end
$var wire 1 I" clk_div2 $end
$var wire 1 J" clk_div1024 $end
$var parameter 5 K" BOTH_EDGES_EXTERNAL $end
$var parameter 32 L" CLK_SELECT_BIT_WIDTH $end
$var parameter 32 M" EDGE_SELECT_BIT_WIDTH $end
$var parameter 5 N" FALLING_DIV1024 $end
$var parameter 5 O" FALLING_DIV2 $end
$var parameter 5 P" FALLING_DIV32 $end
$var parameter 5 Q" FALLING_DIV64 $end
$var parameter 5 R" FALLING_DIV8 $end
$var parameter 5 S" FALLING_DIV8192 $end
$var parameter 5 T" FALLING_EXTERNAL $end
$var parameter 5 U" OVF_COMP_MATCH $end
$var parameter 5 V" PROHIBITED $end
$var parameter 5 W" RISING_DIV1024 $end
$var parameter 5 X" RISING_DIV2 $end
$var parameter 5 Y" RISING_DIV32 $end
$var parameter 5 Z" RISING_DIV64 $end
$var parameter 5 [" RISING_DIV8 $end
$var parameter 5 \" RISING_DIV8192 $end
$var parameter 5 ]" RISING_EXTERNAL $end
$var reg 1 M CounterClock0 $end
$var reg 1 L CounterClock1 $end
$var reg 2 ^" CounterEdge0 [1:0] $end
$var reg 2 _" CounterEdge1 [1:0] $end
$scope module div1024 $end
$var wire 1 ; clk_in $end
$var parameter 32 `" DIVISOR $end
$var reg 1 J" clk_out $end
$var reg 28 a" counter [27:0] $end
$upscope $end
$scope module div2 $end
$var wire 1 ; clk_in $end
$var parameter 32 b" DIVISOR $end
$var reg 1 I" clk_out $end
$var reg 28 c" counter [27:0] $end
$upscope $end
$scope module div32 $end
$var wire 1 ; clk_in $end
$var parameter 32 d" DIVISOR $end
$var reg 1 H" clk_out $end
$var reg 28 e" counter [27:0] $end
$upscope $end
$scope module div64 $end
$var wire 1 ; clk_in $end
$var parameter 32 f" DIVISOR $end
$var reg 1 G" clk_out $end
$var reg 28 g" counter [27:0] $end
$upscope $end
$scope module div8 $end
$var wire 1 ; clk_in $end
$var parameter 32 h" DIVISOR $end
$var reg 1 F" clk_out $end
$var reg 28 i" counter [27:0] $end
$upscope $end
$scope module div8192 $end
$var wire 1 ; clk_in $end
$var parameter 32 j" DIVISOR $end
$var reg 1 E" clk_out $end
$var reg 28 k" counter [27:0] $end
$upscope $end
$upscope $end
$scope module Comparator_A0 $end
$var wire 8 l" TCNT [7:0] $end
$var wire 8 m" TCOR [7:0] $end
$var wire 1 W CompareMatch $end
$var parameter 32 n" BIT_WIDTH $end
$upscope $end
$scope module Comparator_A1 $end
$var wire 8 o" TCNT [7:0] $end
$var wire 8 p" TCOR [7:0] $end
$var wire 1 V CompareMatch $end
$var parameter 32 q" BIT_WIDTH $end
$upscope $end
$scope module Comparator_A2 $end
$var wire 8 r" TCNT [7:0] $end
$var wire 8 s" TCOR [7:0] $end
$var wire 1 U CompareMatch $end
$var parameter 32 t" BIT_WIDTH $end
$upscope $end
$scope module Comparator_A3 $end
$var wire 8 u" TCNT [7:0] $end
$var wire 8 v" TCOR [7:0] $end
$var wire 1 T CompareMatch $end
$var parameter 32 w" BIT_WIDTH $end
$upscope $end
$scope module Comparator_B0 $end
$var wire 8 x" TCNT [7:0] $end
$var wire 8 y" TCOR [7:0] $end
$var wire 1 S CompareMatch $end
$var parameter 32 z" BIT_WIDTH $end
$upscope $end
$scope module Comparator_B1 $end
$var wire 8 {" TCNT [7:0] $end
$var wire 8 |" TCOR [7:0] $end
$var wire 1 R CompareMatch $end
$var parameter 32 }" BIT_WIDTH $end
$upscope $end
$scope module Comparator_B2 $end
$var wire 8 ~" TCNT [7:0] $end
$var wire 8 !# TCOR [7:0] $end
$var wire 1 Q CompareMatch $end
$var parameter 32 "# BIT_WIDTH $end
$upscope $end
$scope module Comparator_B3 $end
$var wire 8 ## TCNT [7:0] $end
$var wire 8 $# TCOR [7:0] $end
$var wire 1 P CompareMatch $end
$var parameter 32 %# BIT_WIDTH $end
$upscope $end
$scope module LogicControl_0 $end
$var wire 1 W CompareMatchA0 $end
$var wire 1 V CompareMatchA1 $end
$var wire 1 S CompareMatchB0 $end
$var wire 1 R CompareMatchB1 $end
$var wire 1 &# Overflow0 $end
$var wire 1 '# Overflow1 $end
$var wire 8 (# TCCR_0 [7:0] $end
$var wire 8 )# TCCR_1 [7:0] $end
$var wire 8 *# TCR_0 [7:0] $end
$var wire 8 +# TCR_1 [7:0] $end
$var wire 8 ,# TCSR_0 [7:0] $end
$var wire 8 -# TCSR_1 [7:0] $end
$var wire 1 7 TMRI0 $end
$var wire 1 8 TMRI1 $end
$var wire 1 .# pulse_rst_0 $end
$var wire 1 /# pulse_rst_1 $end
$var wire 5 0# clock_select_1 [4:0] $end
$var wire 5 1# clock_select_0 [4:0] $end
$var wire 1 2# TMRIS_1 $end
$var wire 1 3# TMRIS_0 $end
$var wire 1 4# OVIE_1 $end
$var wire 1 5# OVIE_0 $end
$var wire 1 6# OVF_1 $end
$var wire 1 7# OVF_0 $end
$var wire 1 8# OS3_1 $end
$var wire 1 9# OS3_0 $end
$var wire 1 :# OS2_1 $end
$var wire 1 ;# OS2_0 $end
$var wire 1 <# OS1_1 $end
$var wire 1 =# OS1_0 $end
$var wire 1 ># OS0_1 $end
$var wire 1 ?# OS0_0 $end
$var wire 1 @# ICKS1_1 $end
$var wire 1 A# ICKS1_0 $end
$var wire 1 B# ICKS0_1 $end
$var wire 1 C# ICKS0_0 $end
$var wire 1 D# CounterClear1 $end
$var wire 1 E# CounterClear0 $end
$var wire 1 F# CMIEB_1 $end
$var wire 1 G# CMIEB_0 $end
$var wire 1 H# CMIEA_1 $end
$var wire 1 I# CMIEA_0 $end
$var wire 1 J# CMFB_1 $end
$var wire 1 K# CMFB_0 $end
$var wire 1 L# CMFA_1 $end
$var wire 1 M# CMFA_0 $end
$var wire 1 N# CKS2_1 $end
$var wire 1 O# CKS2_0 $end
$var wire 1 P# CKS1_1 $end
$var wire 1 Q# CKS1_0 $end
$var wire 1 R# CKS0_1 $end
$var wire 1 S# CKS0_0 $end
$var wire 1 T# CCLR1_1 $end
$var wire 1 U# CCLR1_0 $end
$var wire 1 V# CCLR0_1 $end
$var wire 1 W# CCLR0_0 $end
$var wire 1 X# ADTE_0 $end
$var parameter 32 Y# BIT_WIDTH $end
$var parameter 32 Z# CLK_SELECT_BIT_WIDTH $end
$var reg 1 2 ADC_REQUEST $end
$var reg 1 1 CMIA0 $end
$var reg 1 0 CMIA1 $end
$var reg 1 - CMIB0 $end
$var reg 1 , CMIB1 $end
$var reg 1 ) OVI0 $end
$var reg 1 ( OVI1 $end
$var reg 1 % TMO0 $end
$var reg 1 $ TMO1 $end
$var reg 1 [# edge_rst_0 $end
$var reg 1 \# edge_rst_1 $end
$upscope $end
$scope module LogicControl_1 $end
$var wire 1 U CompareMatchA0 $end
$var wire 1 T CompareMatchA1 $end
$var wire 1 Q CompareMatchB0 $end
$var wire 1 P CompareMatchB1 $end
$var wire 1 ]# Overflow0 $end
$var wire 1 ^# Overflow1 $end
$var wire 8 _# TCCR_0 [7:0] $end
$var wire 8 `# TCCR_1 [7:0] $end
$var wire 8 a# TCR_0 [7:0] $end
$var wire 8 b# TCR_1 [7:0] $end
$var wire 8 c# TCSR_0 [7:0] $end
$var wire 8 d# TCSR_1 [7:0] $end
$var wire 1 9 TMRI0 $end
$var wire 1 : TMRI1 $end
$var wire 1 e# pulse_rst_0 $end
$var wire 1 f# pulse_rst_1 $end
$var wire 5 g# clock_select_1 [4:0] $end
$var wire 5 h# clock_select_0 [4:0] $end
$var wire 1 i# TMRIS_1 $end
$var wire 1 j# TMRIS_0 $end
$var wire 1 k# OVIE_1 $end
$var wire 1 l# OVIE_0 $end
$var wire 1 m# OVF_1 $end
$var wire 1 n# OVF_0 $end
$var wire 1 o# OS3_1 $end
$var wire 1 p# OS3_0 $end
$var wire 1 q# OS2_1 $end
$var wire 1 r# OS2_0 $end
$var wire 1 s# OS1_1 $end
$var wire 1 t# OS1_0 $end
$var wire 1 u# OS0_1 $end
$var wire 1 v# OS0_0 $end
$var wire 1 w# ICKS1_1 $end
$var wire 1 x# ICKS1_0 $end
$var wire 1 y# ICKS0_1 $end
$var wire 1 z# ICKS0_0 $end
$var wire 1 {# CounterClear1 $end
$var wire 1 |# CounterClear0 $end
$var wire 1 }# CMIEB_1 $end
$var wire 1 ~# CMIEB_0 $end
$var wire 1 !$ CMIEA_1 $end
$var wire 1 "$ CMIEA_0 $end
$var wire 1 #$ CMFB_1 $end
$var wire 1 $$ CMFB_0 $end
$var wire 1 %$ CMFA_1 $end
$var wire 1 &$ CMFA_0 $end
$var wire 1 '$ CKS2_1 $end
$var wire 1 ($ CKS2_0 $end
$var wire 1 )$ CKS1_1 $end
$var wire 1 *$ CKS1_0 $end
$var wire 1 +$ CKS0_1 $end
$var wire 1 ,$ CKS0_0 $end
$var wire 1 -$ CCLR1_1 $end
$var wire 1 .$ CCLR1_0 $end
$var wire 1 /$ CCLR0_1 $end
$var wire 1 0$ CCLR0_0 $end
$var wire 1 1$ ADTE_0 $end
$var parameter 32 2$ BIT_WIDTH $end
$var parameter 32 3$ CLK_SELECT_BIT_WIDTH $end
$var reg 1 X ADC_REQUEST $end
$var reg 1 / CMIA0 $end
$var reg 1 . CMIA1 $end
$var reg 1 + CMIB0 $end
$var reg 1 * CMIB1 $end
$var reg 1 ' OVI0 $end
$var reg 1 & OVI1 $end
$var reg 1 # TMO0 $end
$var reg 1 " TMO1 $end
$var reg 1 4$ edge_rst_0 $end
$var reg 1 5$ edge_rst_1 $end
$upscope $end
$upscope $end
$upscope $end
$enddefinitions $end
$comment Show the parameter values. $end
$dumpall
b101 3$
b1000 2$
b101 Z#
b1000 Y#
b1000 %#
b1000 "#
b1000 }"
b1000 z"
b1000 w"
b1000 t"
b1000 q"
b1000 n"
b10000000000000 j"
b1000 h"
b1000000 f"
b100000 d"
b10 b"
b10000000000 `"
b10100 ]"
b1100 \"
b100 ["
b1000 Z"
b1001 Y"
b101 X"
b1101 W"
b0 V"
b10000 U"
b11000 T"
b1110 S"
b110 R"
b1010 Q"
b1011 P"
b111 O"
b1111 N"
b10 M"
b101 L"
b11100 K"
b10000000000000 A"
b1000 ?"
b1000000 ="
b100000 ;"
b10 9"
b10000000000 7"
b10100 4"
b1100 3"
b100 2"
b1000 1"
b1001 0"
b101 /"
b1101 ."
b0 -"
b10000 ,"
b11000 +"
b1110 *"
b110 )"
b1010 ("
b1011 '"
b111 &"
b1111 %"
b10 $"
b101 #"
b11100 ""
b1 _
b0 ^
b10 ]
b10 \
b101 [
b11 Z
b1000 Y
$end
#0
$dumpvars
x5$
x4$
x1$
x0$
x/$
x.$
x-$
x,$
x+$
x*$
x)$
x($
x'$
x&$
x%$
x$$
x#$
x"$
x!$
x~#
x}#
x|#
x{#
xz#
xy#
xx#
xw#
xv#
xu#
xt#
xs#
xr#
xq#
xp#
xo#
xn#
xm#
xl#
xk#
xj#
xi#
bx h#
bx g#
0f#
0e#
bx d#
bx c#
bx b#
bx a#
bx `#
bx _#
z^#
z]#
x\#
x[#
xX#
xW#
xV#
xU#
xT#
xS#
xR#
xQ#
xP#
xO#
xN#
xM#
xL#
xK#
xJ#
xI#
xH#
xG#
xF#
xE#
xD#
xC#
xB#
xA#
x@#
x?#
x>#
x=#
x<#
x;#
x:#
x9#
x8#
x7#
x6#
x5#
x4#
x3#
x2#
bx 1#
bx 0#
0/#
0.#
bx -#
bx ,#
bx +#
bx *#
bx )#
bx (#
z'#
z&#
bx $#
bx ##
bx !#
bx ~"
bx |"
bx {"
bx y"
bx x"
bx v"
bx u"
bx s"
bx r"
bx p"
bx o"
bx m"
bx l"
b0 k"
b0 i"
b0 g"
b0 e"
b0 c"
b0 a"
bx _"
bx ^"
0J"
0I"
0H"
0G"
0F"
0E"
bx D"
bx C"
b0 B"
b0 @"
b0 >"
b0 <"
b0 :"
b0 8"
bx 6"
bx 5"
0!"
0~
0}
0|
0{
0z
bx y
bx x
bx w
bx v
bx u
bx t
bx s
bx r
bx q
bx p
bx o
bx n
bx m
bx l
bx k
bx j
bx i
bx h
bx g
bx f
bx e
bx d
bx c
bx b
bx a
bx `
xX
xW
xV
xU
xT
xS
xR
xQ
xP
0O
xN
0M
xL
bx K
bx J
bx I
bx H
xG
xF
xE
xD
bx C
bx B
bx A
bx @
z?
z>
z=
z<
0;
0:
09
08
07
06
05
04
03
x2
x1
x0
x/
x.
x-
x,
x+
x*
x)
x(
x'
x&
x%
x$
x#
x"
z!
$end
#5
1~
b1 @"
b1 <"
b1 >"
b1 8"
b1 B"
1I"
b1 i"
b1 e"
b1 g"
b1 a"
b1 k"
1;
#10
1O
0;
13
#15
b10 k"
b10 a"
b10 g"
b10 e"
b10 i"
0I"
b10 B"
b10 8"
b10 >"
b10 <"
b10 @"
0~
1;
14
#20
0O
0;
03
#25
1~
b11 @"
b11 <"
b11 >"
b11 8"
b11 B"
1I"
b11 i"
b11 e"
b11 g"
b11 a"
b11 k"
1;
#30
1O
0;
13
04
#35
b100 k"
b100 a"
b100 g"
b100 e"
b0 i"
1F"
0I"
b100 B"
b100 8"
b100 >"
b100 <"
b0 @"
1{
0~
1;
#40
0O
0;
03
#45
1~
b1 @"
b101 <"
b101 >"
b101 8"
b101 B"
1I"
b1 i"
b101 e"
b101 g"
b101 a"
b101 k"
1;
14
#50
1O
0;
13
#55
b110 k"
b110 a"
b110 g"
b110 e"
b10 i"
0I"
b110 B"
b110 8"
b110 >"
b110 <"
b10 @"
0~
1;
#60
0O
0;
03
04
#65
1~
b11 @"
b111 <"
b111 >"
b111 8"
b111 B"
1I"
b11 i"
b111 e"
b111 g"
b111 a"
b111 k"
1;
#70
1O
0;
13
#75
b1000 k"
b1000 a"
b1000 g"
b1000 e"
b0 i"
0F"
0I"
b1000 B"
b1000 8"
b1000 >"
b1000 <"
b0 @"
0{
0~
1;
14
#80
0O
0;
03
#85
1~
b1 @"
b1001 <"
b1001 >"
b1001 8"
b1001 B"
1I"
b1 i"
b1001 e"
b1001 g"
b1001 a"
b1001 k"
1;
#90
1O
0;
13
04
#95
b1010 k"
b1010 a"
b1010 g"
b1010 e"
b10 i"
0I"
b1010 B"
b1010 8"
b1010 >"
b1010 <"
b10 @"
0~
1;
#100
0O
0;
03
#105
1~
b11 @"
b1011 <"
b1011 >"
b1011 8"
b1011 B"
1I"
b11 i"
b1011 e"
b1011 g"
b1011 a"
b1011 k"
1;
14
#110
1O
0;
13
#115
b1100 k"
b1100 a"
b1100 g"
b1100 e"
b0 i"
1F"
0I"
b1100 B"
b1100 8"
b1100 >"
b1100 <"
b0 @"
1{
0~
1;
#120
0O
0;
03
04
#125
1~
b1 @"
b1101 <"
b1101 >"
b1101 8"
b1101 B"
1I"
b1 i"
b1101 e"
b1101 g"
b1101 a"
b1101 k"
1;
#130
1O
0;
13
#135
b1110 k"
b1110 a"
b1110 g"
b1110 e"
b10 i"
0I"
b1110 B"
b1110 8"
b1110 >"
b1110 <"
b10 @"
0~
1;
14
#140
0O
0;
03
#145
1~
b11 @"
b1111 <"
b1111 >"
b1111 8"
b1111 B"
1I"
b11 i"
b1111 e"
b1111 g"
b1111 a"
b1111 k"
1;
#150
1O
0;
13
04
#155
b10000 k"
b10000 a"
b10000 g"
b0 e"
1H"
b0 i"
0F"
0I"
b10000 B"
b10000 8"
b10000 >"
b0 <"
1}
b0 @"
0{
0~
1;
#160
0O
0;
03
#165
1~
b1 @"
b1 <"
b10001 >"
b10001 8"
b10001 B"
1I"
b1 i"
b1 e"
b10001 g"
b10001 a"
b10001 k"
1;
14
#170
1O
0;
13
#175
b10010 k"
b10010 a"
b10010 g"
b10 e"
b10 i"
0I"
b10010 B"
b10010 8"
b10010 >"
b10 <"
b10 @"
0~
1;
#180
0O
0;
03
04
#185
1~
b11 @"
b11 <"
b10011 >"
b10011 8"
b10011 B"
1I"
b11 i"
b11 e"
b10011 g"
b10011 a"
b10011 k"
1;
#190
1O
0;
13
#195
b10100 k"
b10100 a"
b10100 g"
b100 e"
b0 i"
1F"
0I"
b10100 B"
b10100 8"
b10100 >"
b100 <"
b0 @"
1{
0~
1;
14
#200
0O
0;
03
#205
1~
b1 @"
b101 <"
b10101 >"
b10101 8"
b10101 B"
1I"
b1 i"
b101 e"
b10101 g"
b10101 a"
b10101 k"
1;
#210
1O
0;
13
04
#215
b10110 k"
b10110 a"
b10110 g"
b110 e"
b10 i"
0I"
b10110 B"
b10110 8"
b10110 >"
b110 <"
b10 @"
0~
1;
#220
0O
0;
03
#225
1~
b11 @"
b111 <"
b10111 >"
b10111 8"
b10111 B"
1I"
b11 i"
b111 e"
b10111 g"
b10111 a"
b10111 k"
1;
14
#230
1O
0;
13
#235
b11000 k"
b11000 a"
b11000 g"
b1000 e"
b0 i"
0F"
0I"
b11000 B"
b11000 8"
b11000 >"
b1000 <"
b0 @"
0{
0~
1;
#240
0O
0;
03
04
#245
1~
b1 @"
b1001 <"
b11001 >"
b11001 8"
b11001 B"
1I"
b1 i"
b1001 e"
b11001 g"
b11001 a"
b11001 k"
1;
#250
1O
0;
13
#255
b11010 k"
b11010 a"
b11010 g"
b1010 e"
b10 i"
0I"
b11010 B"
b11010 8"
b11010 >"
b1010 <"
b10 @"
0~
1;
14
#260
0O
0;
03
#265
1~
b11 @"
b1011 <"
b11011 >"
b11011 8"
b11011 B"
1I"
b11 i"
b1011 e"
b11011 g"
b11011 a"
b11011 k"
1;
#270
1O
0;
13
04
#275
b11100 k"
b11100 a"
b11100 g"
b1100 e"
b0 i"
1F"
0I"
b11100 B"
b11100 8"
b11100 >"
b1100 <"
b0 @"
1{
0~
1;
#280
0O
0;
03
#285
1~
b1 @"
b1101 <"
b11101 >"
b11101 8"
b11101 B"
1I"
b1 i"
b1101 e"
b11101 g"
b11101 a"
b11101 k"
1;
14
#290
1O
0;
13
#295
b11110 k"
b11110 a"
b11110 g"
b1110 e"
b10 i"
0I"
b11110 B"
b11110 8"
b11110 >"
b1110 <"
b10 @"
0~
1;
#300
0O
0;
03
04
#305
1~
b11 @"
b1111 <"
b11111 >"
b11111 8"
b11111 B"
1I"
b11 i"
b1111 e"
b11111 g"
b11111 a"
b11111 k"
1;
#310
1O
0;
13
#315
b100000 k"
b100000 a"
b0 g"
1G"
b0 e"
0H"
b0 i"
0F"
0I"
b100000 B"
b100000 8"
b0 >"
1|
b0 <"
0}
b0 @"
0{
0~
1;
14
#320
0O
0;
03
#325
1~
b1 @"
b1 <"
b1 >"
b100001 8"
b100001 B"
1I"
b1 i"
b1 e"
b1 g"
b100001 a"
b100001 k"
1;
#330
1O
0;
13
04
#335
b100010 k"
b100010 a"
b10 g"
b10 e"
b10 i"
0I"
b100010 B"
b100010 8"
b10 >"
b10 <"
b10 @"
0~
1;
#340
0O
0;
03
#345
1~
b11 @"
b11 <"
b11 >"
b100011 8"
b100011 B"
1I"
b11 i"
b11 e"
b11 g"
b100011 a"
b100011 k"
1;
14
#350
1O
0;
13
#355
b100100 k"
b100100 a"
b100 g"
b100 e"
b0 i"
1F"
0I"
b100100 B"
b100100 8"
b100 >"
b100 <"
b0 @"
1{
0~
1;
#360
0O
0;
03
04
#365
1~
b1 @"
b101 <"
b101 >"
b100101 8"
b100101 B"
1I"
b1 i"
b101 e"
b101 g"
b100101 a"
b100101 k"
1;
#370
1O
0;
13
#375
b100110 k"
b100110 a"
b110 g"
b110 e"
b10 i"
0I"
b100110 B"
b100110 8"
b110 >"
b110 <"
b10 @"
0~
1;
14
#380
0O
0;
03
#385
1~
b11 @"
b111 <"
b111 >"
b100111 8"
b100111 B"
1I"
b11 i"
b111 e"
b111 g"
b100111 a"
b100111 k"
1;
#390
1O
0;
13
04
#395
b101000 k"
b101000 a"
b1000 g"
b1000 e"
b0 i"
0F"
0I"
b101000 B"
b101000 8"
b1000 >"
b1000 <"
b0 @"
0{
0~
1;
#400
0O
0;
03
#405
1~
b1 @"
b1001 <"
b1001 >"
b101001 8"
b101001 B"
1I"
b1 i"
b1001 e"
b1001 g"
b101001 a"
b101001 k"
1;
14
#410
1O
0;
13
#415
b101010 k"
b101010 a"
b1010 g"
b1010 e"
b10 i"
0I"
b101010 B"
b101010 8"
b1010 >"
b1010 <"
b10 @"
0~
1;
#420
0O
0;
03
04
#425
1~
b11 @"
b1011 <"
b1011 >"
b101011 8"
b101011 B"
1I"
b11 i"
b1011 e"
b1011 g"
b101011 a"
b101011 k"
1;
#430
1O
0;
13
#435
b101100 k"
b101100 a"
b1100 g"
b1100 e"
b0 i"
1F"
0I"
b101100 B"
b101100 8"
b1100 >"
b1100 <"
b0 @"
1{
0~
1;
14
#440
0O
0;
03
#445
1~
b1 @"
b1101 <"
b1101 >"
b101101 8"
b101101 B"
1I"
b1 i"
b1101 e"
b1101 g"
b101101 a"
b101101 k"
1;
#450
1O
0;
13
04
#455
b101110 k"
b101110 a"
b1110 g"
b1110 e"
b10 i"
0I"
b101110 B"
b101110 8"
b1110 >"
b1110 <"
b10 @"
0~
1;
#460
0O
0;
03
#465
1~
b11 @"
b1111 <"
b1111 >"
b101111 8"
b101111 B"
1I"
b11 i"
b1111 e"
b1111 g"
b101111 a"
b101111 k"
1;
14
#470
1O
0;
13
#475
b110000 k"
b110000 a"
b10000 g"
b0 e"
1H"
b0 i"
0F"
0I"
b110000 B"
b110000 8"
b10000 >"
b0 <"
1}
b0 @"
0{
0~
1;
#480
0O
0;
03
04
#485
1~
b1 @"
b1 <"
b10001 >"
b110001 8"
b110001 B"
1I"
b1 i"
b1 e"
b10001 g"
b110001 a"
b110001 k"
1;
#490
1O
0;
13
#495
b110010 k"
b110010 a"
b10010 g"
b10 e"
b10 i"
0I"
b110010 B"
b110010 8"
b10010 >"
b10 <"
b10 @"
0~
1;
14
#500
0O
0;
03
#505
1~
b11 @"
b11 <"
b10011 >"
b110011 8"
b110011 B"
1I"
b11 i"
b11 e"
b10011 g"
b110011 a"
b110011 k"
1;
#510
1O
0;
13
04
#515
b110100 k"
b110100 a"
b10100 g"
b100 e"
b0 i"
1F"
0I"
b110100 B"
b110100 8"
b10100 >"
b100 <"
b0 @"
1{
0~
1;
#520
0O
0;
03
