Output/Timer.vcd
$date
	Mon Jun 30 15:58:32 2025
$end
$version
	Icarus Verilog
$end
$timescale
	1s
$end
$scope module Timer_tb $end
$var wire 1 ! ACD_REQUEST_1 $end
$var wire 1 " TMO3 $end
$var wire 1 # TMO2 $end
$var wire 1 $ TMO1 $end
$var wire 1 % TMO0 $end
$var wire 1 & OVI3 $end
$var wire 1 ' OVI2 $end
$var wire 1 ( OVI1 $end
$var wire 1 ) OVI0 $end
$var wire 1 * CMIB3 $end
$var wire 1 + CMIB2 $end
$var wire 1 , CMIB1 $end
$var wire 1 - CMIB0 $end
$var wire 1 . CMIA3 $end
$var wire 1 / CMIA2 $end
$var wire 1 0 CMIA1 $end
$var wire 1 1 CMIA0 $end
$var wire 1 2 ACD_REQUEST_0 $end
$var reg 1 3 TMCI0 $end
$var reg 1 4 TMCI1 $end
$var reg 1 5 TMCI2 $end
$var reg 1 6 TMCI3 $end
$var reg 1 7 TMRI0 $end
$var reg 1 8 TMRI1 $end
$var reg 1 9 TMRI2 $end
$var reg 1 : TMRI3 $end
$var reg 1 ; clk $end
$scope module Timer_u $end
$var wire 1 ! ACD_REQUEST_1 $end
$var wire 1 < Overflow0 $end
$var wire 1 = Overflow1 $end
$var wire 1 > Overflow2 $end
$var wire 1 ? Overflow3 $end
$var wire 1 3 TMCI0 $end
$var wire 1 4 TMCI1 $end
$var wire 1 5 TMCI2 $end
$var wire 1 6 TMCI3 $end
$var wire 1 7 TMRI0 $end
$var wire 1 8 TMRI1 $end
$var wire 1 9 TMRI2 $end
$var wire 1 : TMRI3 $end
$var wire 1 ; clk $end
$var wire 5 @ clock_select_3 [4:0] $end
$var wire 5 A clock_select_2 [4:0] $end
$var wire 5 B clock_select_1 [4:0] $end
$var wire 5 C clock_select_0 [4:0] $end
$var wire 1 " TMO3 $end
$var wire 1 # TMO2 $end
$var wire 1 $ TMO1 $end
$var wire 1 % TMO0 $end
$var wire 1 D Overflow_3 $end
$var wire 1 E Overflow_2 $end
$var wire 1 F Overflow_1 $end
$var wire 1 G Overflow_0 $end
$var wire 1 & OVI3 $end
$var wire 1 ' OVI2 $end
$var wire 1 ( OVI1 $end
$var wire 1 ) OVI0 $end
$var wire 2 H CounterEdge3 [1:0] $end
$var wire 2 I CounterEdge2 [1:0] $end
$var wire 2 J CounterEdge1 [1:0] $end
$var wire 2 K CounterEdge0 [1:0] $end
$var wire 1 L CounterClock3 $end
$var wire 1 M CounterClock2 $end
$var wire 1 N CounterClock1 $end
$var wire 1 O CounterClock0 $end
$var wire 1 P CounterClear3 $end
$var wire 1 Q CounterClear2 $end
$var wire 1 R CounterClear1 $end
$var wire 1 S CounterClear0 $end
$var wire 1 T CompareMatchB3 $end
$var wire 1 U CompareMatchB2 $end
$var wire 1 V CompareMatchB1 $end
$var wire 1 W CompareMatchB0 $end
$var wire 1 X CompareMatchA3 $end
$var wire 1 Y CompareMatchA2 $end
$var wire 1 Z CompareMatchA1 $end
$var wire 1 [ CompareMatchA0 $end
$var wire 1 * CMIB3 $end
$var wire 1 + CMIB2 $end
$var wire 1 , CMIB1 $end
$var wire 1 - CMIB0 $end
$var wire 1 . CMIA3 $end
$var wire 1 / CMIA2 $end
$var wire 1 0 CMIA1 $end
$var wire 1 1 CMIA0 $end
$var wire 1 \ ADC_REQUEST_1 $end
$var wire 1 2 ACD_REQUEST_0 $end
$var parameter 32 ] BIT_WIDTH $end
$var parameter 2 ^ BOTH_EDGES $end
$var parameter 32 _ CLK_SELECT_BIT_WIDTH $end
$var parameter 32 ` EDGE_SELECT_BIT_WIDTH $end
$var parameter 2 a FALLING_EDGE $end
$var parameter 2 b PROHIBITED $end
$var parameter 2 c RISING_EDGE $end
$var reg 8 d TCCR_0 [7:0] $end
$var reg 8 e TCCR_1 [7:0] $end
$var reg 8 f TCCR_2 [7:0] $end
$var reg 8 g TCCR_3 [7:0] $end
$var reg 8 h TCNT_0 [7:0] $end
$var reg 8 i TCNT_1 [7:0] $end
$var reg 8 j TCNT_2 [7:0] $end
$var reg 8 k TCNT_3 [7:0] $end
$var reg 8 l TCORA_0 [7:0] $end
$var reg 8 m TCORA_1 [7:0] $end
$var reg 8 n TCORA_2 [7:0] $end
$var reg 8 o TCORA_3 [7:0] $end
$var reg 8 p TCORB_0 [7:0] $end
$var reg 8 q TCORB_1 [7:0] $end
$var reg 8 r TCORB_2 [7:0] $end
$var reg 8 s TCORB_3 [7:0] $end
$var reg 8 t TCR_0 [7:0] $end
$var reg 8 u TCR_1 [7:0] $end
$var reg 8 v TCR_2 [7:0] $end
$var reg 8 w TCR_3 [7:0] $end
$var reg 8 x TCSR_0 [7:0] $end
$var reg 8 y TCSR_1 [7:0] $end
$var reg 8 z TCSR_2 [7:0] $end
$var reg 8 { TCSR_3 [7:0] $end
$scope module ClockSelect_0 $end
$var wire 1 3 TMCI0 $end
$var wire 1 4 TMCI1 $end
$var wire 1 ; clk $end
$var wire 5 | clock_select_1 [4:0] $end
$var wire 5 } clock_select_0 [4:0] $end
$var wire 1 ~ clk_div8192 $end
$var wire 1 !" clk_div8 $end
$var wire 1 "" clk_div64 $end
$var wire 1 #" clk_div32 $end
$var wire 1 $" clk_div2 $end
$var wire 1 %" clk_div1024 $end
$var parameter 5 &" BOTH_EDGES_EXTERNAL $end
$var parameter 32 '" CLK_SELECT_BIT_WIDTH $end
$var parameter 32 (" EDGE_SELECT_BIT_WIDTH $end
$var parameter 5 )" FALLING_DIV1024 $end
$var parameter 5 *" FALLING_DIV2 $end
$var parameter 5 +" FALLING_DIV32 $end
$var parameter 5 ," FALLING_DIV64 $end
$var parameter 5 -" FALLING_DIV8 $end
$var parameter 5 ." FALLING_DIV8192 $end
$var parameter 5 /" FALLING_EXTERNAL $end
$var parameter 5 0" OVF_COMP_MATCH $end
$var parameter 5 1" PROHIBITED $end
$var parameter 5 2" RISING_DIV1024 $end
$var parameter 5 3" RISING_DIV2 $end
$var parameter 5 4" RISING_DIV32 $end
$var parameter 5 5" RISING_DIV64 $end
$var parameter 5 6" RISING_DIV8 $end
$var parameter 5 7" RISING_DIV8192 $end
$var parameter 5 8" RISING_EXTERNAL $end
$var reg 1 O CounterClock0 $end
$var reg 1 N CounterClock1 $end
$var reg 2 9" CounterEdge0 [1:0] $end
$var reg 2 :" CounterEdge1 [1:0] $end
$scope module div1024 $end
$var wire 1 ; clk_in $end
$var parameter 32 ;" DIVISOR $end
$var reg 1 %" clk_out $end
$var reg 28 <" counter [27:0] $end
$upscope $end
$scope module div2 $end
$var wire 1 ; clk_in $end
$var parameter 32 =" DIVISOR $end
$var reg 1 $" clk_out $end
$var reg 28 >" counter [27:0] $end
$upscope $end
$scope module div32 $end
$var wire 1 ; clk_in $end
$var parameter 32 ?" DIVISOR $end
$var reg 1 #" clk_out $end
$var reg 28 @" counter [27:0] $end
$upscope $end
$scope module div64 $end
$var wire 1 ; clk_in $end
$var parameter 32 A" DIVISOR $end
$var reg 1 "" clk_out $end
$var reg 28 B" counter [27:0] $end
$upscope $end
$scope module div8 $end
$var wire 1 ; clk_in $end
$var parameter 32 C" DIVISOR $end
$var reg 1 !" clk_out $end
$var reg 28 D" counter [27:0] $end
$upscope $end
$scope module div8192 $end
$var wire 1 ; clk_in $end
$var parameter 32 E" DIVISOR $end
$var reg 1 ~ clk_out $end
$var reg 28 F" counter [27:0] $end
$upscope $end
$upscope $end
$scope module ClockSelect_1 $end
$var wire 1 5 TMCI0 $end
$var wire 1 6 TMCI1 $end
$var wire 1 ; clk $end
$var wire 5 G" clock_select_1 [4:0] $end
$var wire 5 H" clock_select_0 [4:0] $end
$var wire 1 I" clk_div8192 $end
$var wire 1 J" clk_div8 $end
$var wire 1 K" clk_div64 $end
$var wire 1 L" clk_div32 $end
$var wire 1 M" clk_div2 $end
$var wire 1 N" clk_div1024 $end
$var parameter 5 O" BOTH_EDGES_EXTERNAL $end
$var parameter 32 P" CLK_SELECT_BIT_WIDTH $end
$var parameter 32 Q" EDGE_SELECT_BIT_WIDTH $end
$var parameter 5 R" FALLING_DIV1024 $end
$var parameter 5 S" FALLING_DIV2 $end
$var parameter 5 T" FALLING_DIV32 $end
$var parameter 5 U" FALLING_DIV64 $end
$var parameter 5 V" FALLING_DIV8 $end
$var parameter 5 W" FALLING_DIV8192 $end
$var parameter 5 X" FALLING_EXTERNAL $end
$var parameter 5 Y" OVF_COMP_MATCH $end
$var parameter 5 Z" PROHIBITED $end
$var parameter 5 [" RISING_DIV1024 $end
$var parameter 5 \" RISING_DIV2 $end
$var parameter 5 ]" RISING_DIV32 $end
$var parameter 5 ^" RISING_DIV64 $end
$var parameter 5 _" RISING_DIV8 $end
$var parameter 5 `" RISING_DIV8192 $end
$var parameter 5 a" RISING_EXTERNAL $end
$var reg 1 M CounterClock0 $end
$var reg 1 L CounterClock1 $end
$var reg 2 b" CounterEdge0 [1:0] $end
$var reg 2 c" CounterEdge1 [1:0] $end
$scope module div1024 $end
$var wire 1 ; clk_in $end
$var parameter 32 d" DIVISOR $end
$var reg 1 N" clk_out $end
$var reg 28 e" counter [27:0] $end
$upscope $end
$scope module div2 $end
$var wire 1 ; clk_in $end
$var parameter 32 f" DIVISOR $end
$var reg 1 M" clk_out $end
$var reg 28 g" counter [27:0] $end
$upscope $end
$scope module div32 $end
$var wire 1 ; clk_in $end
$var parameter 32 h" DIVISOR $end
$var reg 1 L" clk_out $end
$var reg 28 i" counter [27:0] $end
$upscope $end
$scope module div64 $end
$var wire 1 ; clk_in $end
$var parameter 32 j" DIVISOR $end
$var reg 1 K" clk_out $end
$var reg 28 k" counter [27:0] $end
$upscope $end
$scope module div8 $end
$var wire 1 ; clk_in $end
$var parameter 32 l" DIVISOR $end
$var reg 1 J" clk_out $end
$var reg 28 m" counter [27:0] $end
$upscope $end
$scope module div8192 $end
$var wire 1 ; clk_in $end
$var parameter 32 n" DIVISOR $end
$var reg 1 I" clk_out $end
$var reg 28 o" counter [27:0] $end
$upscope $end
$upscope $end
$scope module Comparator_A0 $end
$var wire 8 p" TCNT [7:0] $end
$var wire 8 q" TCOR [7:0] $end
$var wire 1 [ CompareMatch $end
$var parameter 32 r" BIT_WIDTH $end
$upscope $end
$scope module Comparator_A1 $end
$var wire 8 s" TCNT [7:0] $end
$var wire 8 t" TCOR [7:0] $end
$var wire 1 Z CompareMatch $end
$var parameter 32 u" BIT_WIDTH $end
$upscope $end
$scope module Comparator_A2 $end
$var wire 8 v" TCNT [7:0] $end
$var wire 8 w" TCOR [7:0] $end
$var wire 1 Y CompareMatch $end
$var parameter 32 x" BIT_WIDTH $end
$upscope $end
$scope module Comparator_A3 $end
$var wire 8 y" TCNT [7:0] $end
$var wire 8 z" TCOR [7:0] $end
$var wire 1 X CompareMatch $end
$var parameter 32 {" BIT_WIDTH $end
$upscope $end
$scope module Comparator_B0 $end
$var wire 8 |" TCNT [7:0] $end
$var wire 8 }" TCOR [7:0] $end
$var wire 1 W CompareMatch $end
$var parameter 32 ~" BIT_WIDTH $end
$upscope $end
$scope module Comparator_B1 $end
$var wire 8 !# TCNT [7:0] $end
$var wire 8 "# TCOR [7:0] $end
$var wire 1 V CompareMatch $end
$var parameter 32 ## BIT_WIDTH $end
$upscope $end
$scope module Comparator_B2 $end
$var wire 8 $# TCNT [7:0] $end
$var wire 8 %# TCOR [7:0] $end
$var wire 1 U CompareMatch $end
$var parameter 32 &# BIT_WIDTH $end
$upscope $end
$scope module Comparator_B3 $end
$var wire 8 '# TCNT [7:0] $end
$var wire 8 (# TCOR [7:0] $end
$var wire 1 T CompareMatch $end
$var parameter 32 )# BIT_WIDTH $end
$upscope $end
$scope module LogicControl_0 $end
$var wire 1 [ CompareMatchA0 $end
$var wire 1 Z CompareMatchA1 $end
$var wire 1 W CompareMatchB0 $end
$var wire 1 V CompareMatchB1 $end
$var wire 1 < Overflow0 $end
$var wire 1 = Overflow1 $end
$var wire 8 *# TCCR_0 [7:0] $end
$var wire 8 +# TCCR_1 [7:0] $end
$var wire 8 ,# TCR_0 [7:0] $end
$var wire 8 -# TCR_1 [7:0] $end
$var wire 8 .# TCSR_0 [7:0] $end
$var wire 8 /# TCSR_1 [7:0] $end
$var wire 1 7 TMRI0 $end
$var wire 1 8 TMRI1 $end
$var wire 1 ; clk $end
$var wire 1 0# edge_rst_0 $end
$var wire 1 1# edge_rst_1 $end
$var wire 1 2# pulse_rst_0 $end
$var wire 1 3# pulse_rst_1 $end
$var wire 5 4# clock_select_1 [4:0] $end
$var wire 5 5# clock_select_0 [4:0] $end
$var wire 1 6# TMRIS_1 $end
$var wire 1 7# TMRIS_0 $end
$var wire 1 8# OVIE_1 $end
$var wire 1 9# OVIE_0 $end
$var wire 1 :# OVF_1 $end
$var wire 1 ;# OVF_0 $end
$var wire 1 <# OS3_1 $end
$var wire 1 =# OS3_0 $end
$var wire 1 ># OS2_1 $end
$var wire 1 ?# OS2_0 $end
$var wire 1 @# OS1_1 $end
$var wire 1 A# OS1_0 $end
$var wire 1 B# OS0_1 $end
$var wire 1 C# OS0_0 $end
$var wire 1 D# ICKS1_1 $end
$var wire 1 E# ICKS1_0 $end
$var wire 1 F# ICKS0_1 $end
$var wire 1 G# ICKS0_0 $end
$var wire 1 R CounterClear1 $end
$var wire 1 S CounterClear0 $end
$var wire 1 H# CMIEB_1 $end
$var wire 1 I# CMIEB_0 $end
$var wire 1 J# CMIEA_1 $end
$var wire 1 K# CMIEA_0 $end
$var wire 1 L# CMFB_1 $end
$var wire 1 M# CMFB_0 $end
$var wire 1 N# CMFA_1 $end
$var wire 1 O# CMFA_0 $end
$var wire 1 P# CKS2_1 $end
$var wire 1 Q# CKS2_0 $end
$var wire 1 R# CKS1_1 $end
$var wire 1 S# CKS1_0 $end
$var wire 1 T# CKS0_1 $end
$var wire 1 U# CKS0_0 $end
$var wire 1 V# CCLR1_1 $end
$var wire 1 W# CCLR1_0 $end
$var wire 1 X# CCLR0_1 $end
$var wire 1 Y# CCLR0_0 $end
$var wire 1 Z# ADTE_0 $end
$var parameter 32 [# BIT_WIDTH $end
$var parameter 32 \# CLK_SELECT_BIT_WIDTH $end
$var reg 1 2 ADC_REQUEST $end
$var reg 1 1 CMIA0 $end
$var reg 1 0 CMIA1 $end
$var reg 1 - CMIB0 $end
$var reg 1 , CMIB1 $end
$var reg 1 ) OVI0 $end
$var reg 1 ( OVI1 $end
$var reg 1 % TMO0 $end
$var reg 1 $ TMO1 $end
$var reg 1 0# TMRI0_d $end
$var reg 1 1# TMRI1_d $end
$upscope $end
$scope module LogicControl_1 $end
$var wire 1 Y CompareMatchA0 $end
$var wire 1 X CompareMatchA1 $end
$var wire 1 U CompareMatchB0 $end
$var wire 1 T CompareMatchB1 $end
$var wire 1 > Overflow0 $end
$var wire 1 ? Overflow1 $end
$var wire 8 ]# TCCR_0 [7:0] $end
$var wire 8 ^# TCCR_1 [7:0] $end
$var wire 8 _# TCR_0 [7:0] $end
$var wire 8 `# TCR_1 [7:0] $end
$var wire 8 a# TCSR_0 [7:0] $end
$var wire 8 b# TCSR_1 [7:0] $end
$var wire 1 9 TMRI0 $end
$var wire 1 : TMRI1 $end
$var wire 1 ; clk $end
$var wire 1 c# edge_rst_0 $end
$var wire 1 d# edge_rst_1 $end
$var wire 1 e# pulse_rst_0 $end
$var wire 1 f# pulse_rst_1 $end
$var wire 5 g# clock_select_1 [4:0] $end
$var wire 5 h# clock_select_0 [4:0] $end
$var wire 1 i# TMRIS_1 $end
$var wire 1 j# TMRIS_0 $end
$var wire 1 k# OVIE_1 $end
$var wire 1 l# OVIE_0 $end
$var wire 1 m# OVF_1 $end
$var wire 1 n# OVF_0 $end
$var wire 1 o# OS3_1 $end
$var wire 1 p# OS3_0 $end
$var wire 1 q# OS2_1 $end
$var wire 1 r# OS2_0 $end
$var wire 1 s# OS1_1 $end
$var wire 1 t# OS1_0 $end
$var wire 1 u# OS0_1 $end
$var wire 1 v# OS0_0 $end
$var wire 1 w# ICKS1_1 $end
$var wire 1 x# ICKS1_0 $end
$var wire 1 y# ICKS0_1 $end
$var wire 1 z# ICKS0_0 $end
$var wire 1 P CounterClear1 $end
$var wire 1 Q CounterClear0 $end
$var wire 1 {# CMIEB_1 $end
$var wire 1 |# CMIEB_0 $end
$var wire 1 }# CMIEA_1 $end
$var wire 1 ~# CMIEA_0 $end
$var wire 1 !$ CMFB_1 $end
$var wire 1 "$ CMFB_0 $end
$var wire 1 #$ CMFA_1 $end
$var wire 1 $$ CMFA_0 $end
$var wire 1 %$ CKS2_1 $end
$var wire 1 &$ CKS2_0 $end
$var wire 1 '$ CKS1_1 $end
$var wire 1 ($ CKS1_0 $end
$var wire 1 )$ CKS0_1 $end
$var wire 1 *$ CKS0_0 $end
$var wire 1 +$ CCLR1_1 $end
$var wire 1 ,$ CCLR1_0 $end
$var wire 1 -$ CCLR0_1 $end
$var wire 1 .$ CCLR0_0 $end
$var wire 1 /$ ADTE_0 $end
$var parameter 32 0$ BIT_WIDTH $end
$var parameter 32 1$ CLK_SELECT_BIT_WIDTH $end
$var reg 1 \ ADC_REQUEST $end
$var reg 1 / CMIA0 $end
$var reg 1 . CMIA1 $end
$var reg 1 + CMIB0 $end
$var reg 1 * CMIB1 $end
$var reg 1 ' OVI0 $end
$var reg 1 & OVI1 $end
$var reg 1 # TMO0 $end
$var reg 1 " TMO1 $end
$var reg 1 c# TMRI0_d $end
$var reg 1 d# TMRI1_d $end
$upscope $end
$upscope $end
$upscope $end
$enddefinitions $end
$comment Show the parameter values. $end
$dumpall
b101 1$
b1000 0$
b101 \#
b1000 [#
b1000 )#
b1000 &#
b1000 ##
b1000 ~"
b1000 {"
b1000 x"
b1000 u"
b1000 r"
b10000000000000 n"
b1000 l"
b1000000 j"
b100000 h"
b10 f"
b10000000000 d"
b10100 a"
b1100 `"
b100 _"
b1000 ^"
b1001 ]"
b101 \"
b1101 ["
b0 Z"
b10000 Y"
b11000 X"
b1110 W"
b110 V"
b1010 U"
b1011 T"
b111 S"
b1111 R"
b10 Q"
b101 P"
b11100 O"
b10000000000000 E"
b1000 C"
b1000000 A"
b100000 ?"
b10 ="
b10000000000 ;"
b10100 8"
b1100 7"
b100 6"
b1000 5"
b1001 4"
b101 3"
b1101 2"
b0 1"
b10000 0"
b11000 /"
b1110 ."
b110 -"
b1010 ,"
b1011 +"
b111 *"
b1111 )"
b10 ("
b101 '"
b11100 &"
b1 c
b0 b
b10 a
b10 `
b101 _
b11 ^
b1000 ]
$end
#0
$dumpvars
0/$
0.$
0-$
0,$
0+$
0*$
0)$
0($
0'$
0&$
0%$
0$$
0#$
0"$
0!$
0~#
0}#
0|#
0{#
0z#
0y#
0x#
0w#
0v#
0u#
0t#
0s#
0r#
0q#
0p#
0o#
0n#
0m#
0l#
0k#
0j#
0i#
b0 h#
b0 g#
0f#
0e#
xd#
xc#
b10000 b#
b0 a#
b0 `#
b0 _#
b0 ^#
b0 ]#
0Z#
0Y#
0X#
0W#
0V#
0U#
1T#
1S#
1R#
1Q#
1P#
0O#
0N#
0M#
0L#
0K#
0J#
0I#
0H#
0G#
0F#
0E#
0D#
0C#
0B#
0A#
0@#
0?#
0>#
0=#
0<#
0;#
0:#
09#
08#
07#
06#
b11000 5#
b11100 4#
03#
02#
x1#
x0#
b10000 /#
b0 .#
b111 -#
b110 ,#
b0 +#
b0 *#
b11111111 (#
b0 '#
b11111111 %#
b0 $#
b11111111 "#
b1 !#
b11111111 }"
b1 |"
b11111111 z"
b0 y"
b11111111 w"
b0 v"
b11111111 t"
b1 s"
b11111111 q"
b1 p"
b0 o"
b0 m"
b0 k"
b0 i"
b0 g"
b0 e"
b0 c"
b0 b"
0N"
0M"
0L"
0K"
0J"
0I"
b0 H"
b0 G"
b0 F"
b0 D"
b0 B"
b0 @"
b0 >"
b0 <"
b11 :"
b10 9"
0%"
0$"
0#"
0""
0!"
0~
b11000 }
b11100 |
b10000 {
b0 z
b10000 y
b0 x
b0 w
b0 v
b111 u
b110 t
b11111111 s
b11111111 r
b11111111 q
b11111111 p
b11111111 o
b11111111 n
b11111111 m
b11111111 l
b0 k
b0 j
b1 i
b1 h
b0 g
b0 f
b0 e
b0 d
1\
0[
0Z
0Y
0X
0W
0V
0U
0T
0S
0R
0Q
0P
0O
0N
xM
xL
b10 K
b11 J
b0 I
b0 H
0G
0F
0E
0D
b11000 C
b11100 B
b0 A
b0 @
z?
z>
z=
z<
0;
0:
09
08
17
06
05
04
03
12
01
00
0/
0.
0-
0,
0+
0*
0)
0(
0'
0&
x%
x$
x#
x"
z!
$end
#5
1$"
b1 D"
b1 @"
b1 B"
b1 <"
b1 F"
10#
01#
1M"
b1 m"
b1 i"
b1 k"
b1 e"
b1 o"
0c#
0d#
1;
#10
1O
0;
13
#15
b10 i
b10 s"
b10 !#
b10 o"
b10 e"
b10 k"
b10 i"
b10 m"
0M"
b10 F"
b10 <"
b10 B"
b10 @"
b10 D"
0$"
1N
1;
14
#20
b10 h
b10 p"
b10 |"
0O
0;
03
#25
1$"
b11 D"
b11 @"
b11 B"
b11 <"
b11 F"
1M"
b11 m"
b11 i"
b11 k"
b11 e"
b11 o"
1;
#30
b11 i
b11 s"
b11 !#
1O
0N
0;
13
04
#35
b100 o"
b100 e"
b100 k"
b100 i"
b0 m"
1J"
0M"
b100 F"
b100 <"
b100 B"
b100 @"
b0 D"
1!"
0$"
1;
#40
b11 h
b11 p"
b11 |"
0O
0;
03
#45
b100 i
b100 s"
b100 !#
1$"
b1 D"
b101 @"
b101 B"
b101 <"
b101 F"
1M"
b1 m"
b101 i"
b101 k"
b101 e"
b101 o"
1N
1;
14
#50
1O
0;
13
07
#55
b110 o"
b110 e"
b110 k"
b110 i"
b10 m"
0M"
00#
b110 F"
b110 <"
b110 B"
b110 @"
b10 D"
0$"
1;
#60
b100 h
b100 p"
b100 |"
b101 i
b101 s"
b101 !#
0O
0N
0;
03
04
#65
1$"
b11 D"
b111 @"
b111 B"
b111 <"
b111 F"
1M"
b11 m"
b111 i"
b111 k"
b111 e"
b111 o"
1;
#70
1O
0;
13
#75
b110 i
b110 s"
b110 !#
b1000 o"
b1000 e"
b1000 k"
b1000 i"
b0 m"
0J"
0M"
b1000 F"
b1000 <"
b1000 B"
b1000 @"
b0 D"
0!"
0$"
1N
1;
14
#80
b101 h
b101 p"
b101 |"
0O
0;
03
#85
1$"
b1 D"
b1001 @"
b1001 B"
b1001 <"
b1001 F"
1M"
b1 m"
b1001 i"
b1001 k"
b1001 e"
b1001 o"
1;
#90
b111 i
b111 s"
b111 !#
1O
0N
0;
13
04
#95
b1010 o"
b1010 e"
b1010 k"
b1010 i"
b10 m"
0M"
b1010 F"
b1010 <"
b1010 B"
b1010 @"
b10 D"
0$"
1;
#100
b110 h
b110 p"
b110 |"
0O
0;
03
#105
b1000 i
b1000 s"
b1000 !#
1$"
b11 D"
b1011 @"
b1011 B"
b1011 <"
b1011 F"
1M"
b11 m"
b1011 i"
b1011 k"
b1011 e"
b1011 o"
1N
1;
14
#110
1O
0;
13
#115
b1100 o"
b1100 e"
b1100 k"
b1100 i"
b0 m"
1J"
0M"
b1100 F"
b1100 <"
b1100 B"
b1100 @"
b0 D"
1!"
0$"
1;
#120
b111 h
b111 p"
b111 |"
b1001 i
b1001 s"
b1001 !#
0O
0N
0;
03
04
#125
1$"
b1 D"
b1101 @"
b1101 B"
b1101 <"
b1101 F"
1M"
b1 m"
b1101 i"
b1101 k"
b1101 e"
b1101 o"
1;
#130
1O
0;
13
#135
b1010 i
b1010 s"
b1010 !#
b1110 o"
b1110 e"
b1110 k"
b1110 i"
b10 m"
0M"
b1110 F"
b1110 <"
b1110 B"
b1110 @"
b10 D"
0$"
1N
1;
14
#140
b1000 h
b1000 p"
b1000 |"
0O
0;
03
#145
1$"
b11 D"
b1111 @"
b1111 B"
b1111 <"
b1111 F"
1M"
b11 m"
b1111 i"
b1111 k"
b1111 e"
b1111 o"
1;
#150
b1011 i
b1011 s"
b1011 !#
1O
0N
0;
13
04
#155
b10000 o"
b10000 e"
b10000 k"
b0 i"
1L"
b0 m"
0J"
0M"
b10000 F"
b10000 <"
b10000 B"
b0 @"
1#"
b0 D"
0!"
0$"
1;
#160
b1001 h
b1001 p"
b1001 |"
0O
0;
03
#165
b1100 i
b1100 s"
b1100 !#
1$"
b1 D"
b1 @"
b10001 B"
b10001 <"
b10001 F"
1M"
b1 m"
b1 i"
b10001 k"
b10001 e"
b10001 o"
1N
1;
14
#170
1O
0;
13
#175
b10010 o"
b10010 e"
b10010 k"
b10 i"
b10 m"
0M"
b10010 F"
b10010 <"
b10010 B"
b10 @"
b10 D"
0$"
1;
#180
b1010 h
b1010 p"
b1010 |"
b1101 i
b1101 s"
b1101 !#
0O
0N
0;
03
04
#185
1$"
b11 D"
b11 @"
b10011 B"
b10011 <"
b10011 F"
1M"
b11 m"
b11 i"
b10011 k"
b10011 e"
b10011 o"
1;
#190
1O
0;
13
#195
b1110 i
b1110 s"
b1110 !#
b10100 o"
b10100 e"
b10100 k"
b100 i"
b0 m"
1J"
0M"
b10100 F"
b10100 <"
b10100 B"
b100 @"
b0 D"
1!"
0$"
1N
1;
14
#200
b1011 h
b1011 p"
b1011 |"
0O
0;
03
#205
1$"
b1 D"
b101 @"
b10101 B"
b10101 <"
b10101 F"
1M"
b1 m"
b101 i"
b10101 k"
b10101 e"
b10101 o"
1;
#210
b1111 i
b1111 s"
b1111 !#
1O
0N
0;
13
04
#215
b10110 o"
b10110 e"
b10110 k"
b110 i"
b10 m"
0M"
b10110 F"
b10110 <"
b10110 B"
b110 @"
b10 D"
0$"
1;
#220
b1100 h
b1100 p"
b1100 |"
0O
0;
03
#225
b10000 i
b10000 s"
b10000 !#
1$"
b11 D"
b111 @"
b10111 B"
b10111 <"
b10111 F"
1M"
b11 m"
b111 i"
b10111 k"
b10111 e"
b10111 o"
1N
1;
14
#230
1O
0;
13
#235
b11000 o"
b11000 e"
b11000 k"
b1000 i"
b0 m"
0J"
0M"
b11000 F"
b11000 <"
b11000 B"
b1000 @"
b0 D"
0!"
0$"
1;
#240
b1101 h
b1101 p"
b1101 |"
b10001 i
b10001 s"
b10001 !#
0O
0N
0;
03
04
#245
1$"
b1 D"
b1001 @"
b11001 B"
b11001 <"
b11001 F"
1M"
b1 m"
b1001 i"
b11001 k"
b11001 e"
b11001 o"
1;
#250
1O
0;
13
#255
b10010 i
b10010 s"
b10010 !#
b11010 o"
b11010 e"
b11010 k"
b1010 i"
b10 m"
0M"
b11010 F"
b11010 <"
b11010 B"
b1010 @"
b10 D"
0$"
1N
1;
14
#260
b1110 h
b1110 p"
b1110 |"
0O
0;
03
#265
1$"
b11 D"
b1011 @"
b11011 B"
b11011 <"
b11011 F"
1M"
b11 m"
b1011 i"
b11011 k"
b11011 e"
b11011 o"
1;
#270
b10011 i
b10011 s"
b10011 !#
1O
0N
0;
13
04
#275
b11100 o"
b11100 e"
b11100 k"
b1100 i"
b0 m"
1J"
0M"
b11100 F"
b11100 <"
b11100 B"
b1100 @"
b0 D"
1!"
0$"
1;
#280
b1111 h
b1111 p"
b1111 |"
0O
0;
03
#285
b10100 i
b10100 s"
b10100 !#
1$"
b1 D"
b1101 @"
b11101 B"
b11101 <"
b11101 F"
1M"
b1 m"
b1101 i"
b11101 k"
b11101 e"
b11101 o"
1N
1;
14
#290
1O
0;
13
#295
b11110 o"
b11110 e"
b11110 k"
b1110 i"
b10 m"
0M"
b11110 F"
b11110 <"
b11110 B"
b1110 @"
b10 D"
0$"
1;
#300
b10000 h
b10000 p"
b10000 |"
b10101 i
b10101 s"
b10101 !#
0O
0N
0;
03
04
#305
1$"
b11 D"
b1111 @"
b11111 B"
b11111 <"
b11111 F"
1M"
b11 m"
b1111 i"
b11111 k"
b11111 e"
b11111 o"
1;
#310
1O
0;
13
#315
b10110 i
b10110 s"
b10110 !#
b100000 o"
b100000 e"
b0 k"
1K"
b0 i"
0L"
b0 m"
0J"
0M"
b100000 F"
b100000 <"
b0 B"
1""
b0 @"
0#"
b0 D"
0!"
0$"
1N
1;
14
#320
b10001 h
b10001 p"
b10001 |"
0O
0;
03
#325
1$"
b1 D"
b1 @"
b1 B"
b100001 <"
b100001 F"
1M"
b1 m"
b1 i"
b1 k"
b100001 e"
b100001 o"
1;
#330
b10111 i
b10111 s"
b10111 !#
1O
0N
0;
13
04
#335
b100010 o"
b100010 e"
b10 k"
b10 i"
b10 m"
0M"
b100010 F"
b100010 <"
b10 B"
b10 @"
b10 D"
0$"
1;
#340
b10010 h
b10010 p"
b10010 |"
0O
0;
03
#345
b11000 i
b11000 s"
b11000 !#
1$"
b11 D"
b11 @"
b11 B"
b100011 <"
b100011 F"
1M"
b11 m"
b11 i"
b11 k"
b100011 e"
b100011 o"
1N
1;
14
#350
1O
0;
13
#355
b100100 o"
b100100 e"
b100 k"
b100 i"
b0 m"
1J"
0M"
b100100 F"
b100100 <"
b100 B"
b100 @"
b0 D"
1!"
0$"
1;
#360
b10011 h
b10011 p"
b10011 |"
b11001 i
b11001 s"
b11001 !#
0O
0N
0;
03
04
#365
1$"
b1 D"
b101 @"
b101 B"
b100101 <"
b100101 F"
1M"
b1 m"
b101 i"
b101 k"
b100101 e"
b100101 o"
1;
#370
1O
0;
13
#375
b11010 i
b11010 s"
b11010 !#
b100110 o"
b100110 e"
b110 k"
b110 i"
b10 m"
0M"
b100110 F"
b100110 <"
b110 B"
b110 @"
b10 D"
0$"
1N
1;
14
#380
b10100 h
b10100 p"
b10100 |"
0O
0;
03
#385
1$"
b11 D"
b111 @"
b111 B"
b100111 <"
b100111 F"
1M"
b11 m"
b111 i"
b111 k"
b100111 e"
b100111 o"
1;
#390
b11011 i
b11011 s"
b11011 !#
1O
0N
0;
13
04
